<?xml version="1.0" standalone="no"?>
<!DOCTYPE svg PUBLIC "-//W3C//DTD SVG 1.1//EN" "http://www.w3.org/Graphics/SVG/1.1/DTD/svg11.dtd" >
<svg>
<metadata>
Created by FontForge 20090622 at Thu Jul 19 08:44:35 2018
 By deploy user
Copyright 1990 as an unpublished work by Bitstream Inc.  All rights reserved.  Confidential.
</metadata>
<defs>
<font id="FuturaBT-Book" horiz-adv-x="500" >
  <font-face 
    font-family="Futura Book"
    font-weight="500"
    font-stretch="normal"
    units-per-em="1000"
    panose-1="0 0 0 0 0 0 0 0 0 0"
    ascent="800"
    descent="-200"
    x-height="447"
    cap-height="715"
    bbox="-167 -236 1100 963"
    underline-thickness="57"
    underline-position="-81"
    unicode-range="U+0020-U+FB02"
  />
<missing-glyph horiz-adv-x="295" 
 />
    <glyph glyph-name=".notdef" horiz-adv-x="295" 
 />
    <glyph glyph-name=".null" horiz-adv-x="0" 
 />
    <glyph glyph-name="nonmarkingreturn" horiz-adv-x="333" 
 />
    <glyph glyph-name="space" unicode=" " horiz-adv-x="295" 
 />
    <glyph glyph-name="exclam" unicode="!" horiz-adv-x="319" 
d="M121 162v569h78v-569h-78zM102 39q0 24 17 41t41 17t41 -17t17 -41t-16.5 -41t-41.5 -17t-41.5 17t-16.5 41z" />
    <glyph glyph-name="quotedbl" unicode="&#x22;" horiz-adv-x="288" 
d="M103 700v-270h-57v270h57zM242 700v-270h-58v270h58z" />
    <glyph glyph-name="numbersign" unicode="#" horiz-adv-x="769" 
d="M450 711l-81 -230h127l82 230h70l-80 -230h150l-21 -60h-152l-46 -133h161l-21 -60h-162l-81 -229h-71l82 229h-129l-82 -229h-70l81 229h-156l21 60h156l47 133h-167l21 60h168l82 230h71zM475 421h-129l-46 -133h128z" />
    <glyph glyph-name="dollar" unicode="$" horiz-adv-x="590" 
d="M300 56q115 22 115 136q0 51 -27 84t-88 58v-278zM261 661q-43 -8 -67.5 -34.5t-24.5 -63.5q0 -42 21.5 -69t70.5 -48v215zM300 428q103 -36 151 -91t48 -140q0 -91 -53 -148.5t-146 -66.5v-73h-39v72q-168 8 -199 168l72 44q27 -125 127 -137v295q-91 35 -134 84
t-43 119q0 75 46 122.5t131 57.5v48h39v-48q119 -9 169 -108l-73 -46q-30 74 -96 80v-232z" />
    <glyph glyph-name="percent" unicode="%" horiz-adv-x="740" 
d="M133 -19l411 741h60l-410 -741h-61zM322 537q0 -88 -39 -136t-108 -48t-108 48t-39 136t39 136.5t108 48.5t108 -48.5t39 -136.5zM175 402q36 0 55.5 35t19.5 100q0 136 -75 136q-36 0 -55.5 -35.5t-19.5 -100.5t19.5 -100t55.5 -35zM570 31q36 0 55.5 35t19.5 100
q0 135 -75 135q-36 0 -55.5 -35t-19.5 -100t19.5 -100t55.5 -35zM716 166q0 -88 -38.5 -136.5t-107.5 -48.5t-108 48.5t-39 136.5t39 136.5t108 48.5t107.5 -48.5t38.5 -136.5z" />
    <glyph glyph-name="ampersand" unicode="&#x26;" horiz-adv-x="669" 
d="M540 0l-69 83q-95 -96 -217 -96q-95 0 -153.5 56.5t-58.5 145.5q0 127 164 220l-29 33q-46 53 -46 119t45.5 108t118.5 42q74 0 118 -41.5t44 -108.5q0 -53 -31.5 -96t-98.5 -83l156 -188q38 43 85 111l52 -57q-41 -63 -91 -111l114 -137h-103zM281 438l31 18
q67 41 67 103q0 37 -23 59t-61 22q-37 0 -60.5 -23.5t-23.5 -59.5q0 -37 26 -67zM424 141l-173 209l-21 -14q-53 -36 -78 -68t-25 -76q0 -57 37 -94.5t94 -37.5q77 0 166 81z" />
    <glyph glyph-name="quotesingle" unicode="'" horiz-adv-x="149" 
d="M103 700v-270h-57v270h57z" />
    <glyph glyph-name="parenleft" unicode="(" horiz-adv-x="288" 
d="M249 -192l-52 -27q-116 215 -116 483q0 281 116 485l52 -24q-103 -203 -103 -461q0 -267 103 -456z" />
    <glyph glyph-name="parenright" unicode=")" horiz-adv-x="288" 
d="M39 -192q103 189 103 456q0 258 -103 461l52 24q116 -204 116 -485q0 -268 -116 -483z" />
    <glyph glyph-name="asterisk" unicode="*" horiz-adv-x="414" 
d="M74 439l-24 43l109 63l-109 63l25 43l110 -64l-1 128h50l-1 -125l107 61l24 -44l-107 -62l107 -61l-24 -44l-106 61v-122h-50v124z" />
    <glyph glyph-name="plus" unicode="+" horiz-adv-x="833" 
d="M446 596v-269h263v-57h-263v-270h-58v270h-264v57h264v269h58z" />
    <glyph glyph-name="comma" unicode="," horiz-adv-x="295" 
d="M59 -142l93 266l83 -29l-120 -259z" />
    <glyph glyph-name="hyphen" unicode="-" horiz-adv-x="366" 
d="M69 261h228v-77h-228v77z" />
    <glyph glyph-name="period" unicode="." horiz-adv-x="295" 
d="M89 48q0 24 17 41t41 17q25 0 42 -17t17 -41t-17 -40.5t-42 -16.5t-41.5 16.5t-16.5 40.5z" />
    <glyph glyph-name="slash" unicode="/" horiz-adv-x="417" 
d="M350 731h67l-351 -824h-66z" />
    <glyph glyph-name="zero" unicode="0" horiz-adv-x="590" 
d="M295 51q78 0 119 76t41 224q0 149 -41 225.5t-119 76.5q-75 0 -117.5 -78.5t-42.5 -221.5q0 -144 42.5 -223t117.5 -79zM296 -19q-115 0 -182 98t-67 273t67 272.5t180 97.5q116 0 182.5 -96.5t66.5 -273.5q0 -176 -66.5 -273.5t-180.5 -97.5z" />
    <glyph glyph-name="one" unicode="1" horiz-adv-x="590" 
d="M273 0v634h-146l48 74h181v-708h-83z" />
    <glyph glyph-name="two" unicode="2" horiz-adv-x="590" 
d="M487 81v-81h-431l151 179l45.5 54l43 51.5l36 44t33.5 43.5l24.5 38t20 39t10.5 34.5t5 35.5q0 55 -38.5 90t-102.5 35q-68 0 -104 -38t-36 -109v-8h-80q0 3 -0.5 9.5t-0.5 9.5q0 101 59 157.5t165 56.5q105 0 163.5 -52.5t58.5 -145.5q0 -73 -44 -146.5t-137 -175.5
l-112 -121h271z" />
    <glyph glyph-name="three" unicode="3" horiz-adv-x="590" 
d="M55 181h87v-8q0 -55 36 -87t97 -32q71 0 109.5 36t38.5 102q0 140 -156 140q-16 0 -25 -1v70q4 0 11.5 -0.5t11.5 -0.5q149 0 149 128q0 56 -34 89t-93 33q-62 0 -97 -30.5t-38 -88.5h-84q5 92 61.5 141.5t159.5 49.5q99 0 156.5 -51.5t57.5 -138.5q0 -64 -33.5 -107.5
t-93.5 -59.5q64 -11 100 -57t36 -119q0 -97 -63.5 -152.5t-176.5 -55.5q-99 0 -158 51t-59 136v13z" />
    <glyph glyph-name="four" unicode="4" horiz-adv-x="590" 
d="M357 223v314l-209 -314h209zM357 0v154h-335l383 568h36v-499h84v-69h-84v-154h-84z" />
    <glyph glyph-name="five" unicode="5" horiz-adv-x="590" 
d="M104 357l-16 3l85 348h314v-73h-256l-45 -184q49 26 111 26q105 0 166 -63t61 -170q0 -121 -70.5 -192t-192.5 -71q-144 0 -215 105l60 70q49 -101 157 -101q77 0 124 49t47 132q0 77 -48 124.5t-130 47.5q-86 0 -152 -51z" />
    <glyph glyph-name="six" unicode="6" horiz-adv-x="590" 
d="M203 404q52 34 110 34q96 0 156 -61.5t60 -159.5q0 -108 -68 -172t-184 -64q-98 0 -158.5 64.5t-60.5 169.5q0 49 21.5 102.5t43.5 87.5t74 108l163 230l74 -39zM146 208q0 -72 40 -114t108 -42q66 0 106.5 43t40.5 114q0 73 -40.5 115.5t-111.5 42.5q-64 0 -103.5 -44
t-39.5 -115z" />
    <glyph glyph-name="seven" unicode="7" horiz-adv-x="590" 
d="M113 9l305 625h-331v74h453l-357 -735z" />
    <glyph glyph-name="eight" unicode="8" horiz-adv-x="590" 
d="M202 378q-121 38 -121 165q0 78 59 128.5t156 50.5q99 0 156.5 -51t57.5 -135q0 -58 -31.5 -99.5t-89.5 -58.5q70 -20 108.5 -69.5t38.5 -118.5q0 -97 -63 -153t-177 -56q-113 0 -177 56.5t-64 150.5q0 71 38.5 121t108.5 69zM295 50q71 0 110.5 38.5t39.5 105.5
q0 68 -40 107.5t-110 39.5t-110 -39.5t-40 -107.5q0 -67 39.5 -105.5t110.5 -38.5zM296 657q-59 0 -93 -32t-34 -87q0 -54 33 -85t92 -31q61 0 94.5 31t33.5 85q0 55 -33.5 87t-92.5 32z" />
    <glyph glyph-name="nine" unicode="9" horiz-adv-x="590" 
d="M382 300q-52 -34 -110 -34q-96 0 -156 61.5t-60 159.5q0 108 67.5 171.5t183.5 63.5q98 0 158.5 -64.5t60.5 -169.5q0 -49 -21 -102t-43.5 -87.5l-73.5 -107.5l-163 -230l-74 38zM439 495q0 72 -40 114.5t-108 42.5q-66 0 -106.5 -43t-40.5 -114q0 -73 40 -115.5
t111 -42.5q64 0 104 44t40 114z" />
    <glyph glyph-name="colon" unicode=":" horiz-adv-x="319" 
d="M102 49q0 24 17 40.5t41 16.5t41 -16.5t17 -40.5t-16.5 -41t-41.5 -17t-41.5 17t-16.5 41zM102 377q0 24 17 41t41 17t41 -17t17 -41t-16.5 -41t-41.5 -17t-41.5 17t-16.5 41z" />
    <glyph glyph-name="semicolon" unicode=";" horiz-adv-x="319" 
d="M64 -142l93 266l83 -29l-121 -259zM139 377q0 24 17 41t41 17t41 -17t17 -41t-16.5 -41t-41.5 -17t-41.5 17t-16.5 41z" />
    <glyph glyph-name="less" unicode="&#x3c;" horiz-adv-x="833" 
d="M704 497l-488 -199l488 -198v-63l-575 236v50l575 236v-62z" />
    <glyph glyph-name="equal" unicode="=" horiz-adv-x="833" 
d="M709 420v-57h-585v57h585zM709 233v-57h-585v57h585z" />
    <glyph glyph-name="greater" unicode="&#x3e;" horiz-adv-x="833" 
d="M704 323v-50l-575 -236v63l488 198l-488 199v62z" />
    <glyph glyph-name="question" unicode="?" horiz-adv-x="521" 
d="M191 39q0 24 17 41t41 17t41 -17t17 -41t-16.5 -41t-41.5 -17t-41.5 17t-16.5 41zM332 325h75v-16q0 -75 -39 -115t-111 -40q-68 0 -106 38.5t-38 104.5q0 50 28 85t91 79l23.5 16l23 15.5l19 13.5t17 14.5t12.5 14t11 15t5.5 15.5t2.5 19q0 33 -23.5 53.5t-62.5 20.5
q-44 0 -67.5 -27t-23.5 -77h-79v13q0 74 46 119t123 45q81 0 126.5 -42t45.5 -114q0 -49 -30 -85t-99 -82l-25.5 -16.5t-25 -16.5l-19 -14.5t-17.5 -16l-11 -15.5t-9 -20t-2 -22q0 -27 18.5 -44.5t46.5 -17.5q74 0 74 96v4z" />
    <glyph glyph-name="at" unicode="@" horiz-adv-x="1000" 
d="M587 231l29 118q-8 44 -35 68.5t-66 24.5q-72 0 -119.5 -64.5t-47.5 -159.5q0 -54 25 -83t71 -29q49 0 89 34.5t54 90.5zM631 412l28 59h54l-69 -277q-6 -24 -6 -39q0 -44 54 -44q49 0 99 43q43 37 68 95t25 125q0 129 -95 208.5t-254 79.5q-165 0 -279 -100
q-138 -120 -138 -311q0 -166 121 -261q103 -82 261 -82q173 0 308 92l22 -32q-144 -108 -322 -108q-188 0 -305 90q-148 114 -148 305q0 161 98 282q144 175 392 175q168 0 273 -82q128 -99 128 -250q0 -169 -120 -266q-69 -55 -152 -55q-97 0 -97 76q0 1 0.5 5t0.5 6
q-50 -87 -145 -87q-75 0 -114 41.5t-39 120.5q0 114 67 191t162 77q89 0 122 -77z" />
    <glyph glyph-name="A" unicode="A" horiz-adv-x="625" 
d="M312 743l325 -743h-92l-93 219h-279l-93 -219h-92zM312 555l-114 -263h228z" />
    <glyph glyph-name="B" unicode="B" horiz-adv-x="562" 
d="M169 641v-239h66q88 0 126.5 25.5t38.5 89.5q0 74 -37.5 99t-127.5 25h-66zM169 335v-261h66q112 0 146 24q47 34 47 105q0 80 -59 113q-32 19 -109 19h-25h-66zM86 0v715h149q68 0 108.5 -6.5t71.5 -29.5q72 -53 72 -152q0 -117 -106 -148q63 -10 100 -57t37 -119
q0 -90 -59 -149q-36 -35 -85 -44.5t-139 -9.5h-149z" />
    <glyph glyph-name="C" unicode="C" horiz-adv-x="725" 
d="M666 544q-100 109 -238 109q-120 0 -204 -87q-82 -85 -82 -211q0 -99 49 -169q43 -61 105.5 -94t135.5 -33q137 0 234 113v-113q-109 -78 -241 -78q-116 0 -211 66q-78 54 -119.5 133t-41.5 174q0 164 112 273q109 105 266 105q123 0 235 -77v-111z" />
    <glyph glyph-name="D" unicode="D" horiz-adv-x="725" 
d="M86 0v715h137q86 0 128.5 -2.5t98.5 -17.5t97 -47q125 -96 125 -291q0 -194 -125 -290q-56 -43 -121.5 -55t-171.5 -12h-31h-137zM172 80h54q75 0 113 2t82 13.5t72 35.5q90 74 90 227q0 151 -90 226q-40 34 -98.5 43t-168.5 9h-54v-556z" />
    <glyph glyph-name="E" unicode="E" horiz-adv-x="521" 
d="M86 0v715h377v-78h-292v-205h292v-79h-292v-274h292v-79h-377z" />
    <glyph glyph-name="F" unicode="F" horiz-adv-x="507" 
d="M86 0v715h377v-78h-292v-205h292v-79h-292v-353h-85z" />
    <glyph glyph-name="G" unicode="G" horiz-adv-x="814" 
d="M479 369h295v-24q0 -170 -96 -267t-261 -97q-102 0 -180 42q-88 48 -136 133t-48 194q0 179 115 288q98 93 254 93q204 0 304 -150l-71 -57q-78 130 -230 130q-125 0 -202.5 -84t-77.5 -220q0 -128 79 -210t201 -82q107 0 179 65t79 170h-204v76z" />
    <glyph glyph-name="H" unicode="H" horiz-adv-x="722" 
d="M86 0v715h85v-275h380v275h86v-715h-86v359h-380v-359h-85z" />
    <glyph glyph-name="I" unicode="I" horiz-adv-x="259" 
d="M87 0v715h85v-715h-85z" />
    <glyph glyph-name="J" unicode="J" horiz-adv-x="387" 
d="M222 715h86v-558q0 -89 -39.5 -132.5t-122.5 -43.5q-85 0 -146 71l56 56q49 -51 96 -51q43 0 56.5 33t13.5 109v516z" />
    <glyph glyph-name="K" unicode="K" horiz-adv-x="591" 
d="M86 0v715h84v-318l300 318h102l-307 -322l337 -393h-110l-322 385v-385h-84z" />
    <glyph glyph-name="L" unicode="L" horiz-adv-x="456" 
d="M86 0v715h85v-634h270v-81h-355z" />
    <glyph glyph-name="M" unicode="M" horiz-adv-x="838" 
d="M419 -28l-222 514l-90 -486h-83l145 743l250 -591l250 591l145 -743h-83l-91 486z" />
    <glyph glyph-name="N" unicode="N" horiz-adv-x="775" 
d="M86 0v743l523 -571v543h81v-743l-523 565v-537h-81z" />
    <glyph glyph-name="O" unicode="O" horiz-adv-x="870" 
d="M817 356q0 -157 -111 -265q-113 -110 -271 -110q-157 0 -270 110q-112 109 -112 265q0 157 112 266t270 109q159 0 271 -109q111 -108 111 -266zM435 61q120 0 207 87q86 86 86 208q0 124 -86 210t-207 86q-123 0 -207 -86q-86 -88 -86 -210q0 -120 86 -208
q87 -87 207 -87z" />
    <glyph glyph-name="P" unicode="P" horiz-adv-x="508" 
d="M169 398h43q100 0 142.5 22.5t42.5 92.5q0 74 -42.5 99t-142.5 25h-43v-239zM169 321v-321h-83v715h126h24q66 0 106.5 -6.5t73.5 -29.5q73 -52 73 -161t-73 -161q-33 -23 -73 -29.5t-107 -6.5h-24h-43z" />
    <glyph glyph-name="Q" unicode="Q" horiz-adv-x="870" 
d="M826 -69h-105l-95 102q-85 -49 -203 -49q-123 0 -217 70q-153 113 -153 303q0 155 112 265q112 109 270 109q154 0 264 -99q119 -108 119 -276q0 -176 -128 -278zM525 255l106 -114q95 76 95 212q0 90 -40 156q-41 67 -106.5 103.5t-144.5 36.5q-122 0 -207 -85t-85 -207
q0 -152 122 -241q71 -51 163 -51q80 0 138 32l-146 158h105z" />
    <glyph glyph-name="R" unicode="R" horiz-adv-x="535" 
d="M169 643v-239h65q91 0 129 22.5t38 92.5q0 74 -38 99t-129 25h-65zM86 0v715h146h22q61 0 97.5 -6.5t66.5 -29.5q67 -52 67 -159q0 -88 -49 -133.5t-144 -45.5h-15l273 -341h-108l-261 341h-12v-341h-83z" />
    <glyph glyph-name="S" unicode="S" horiz-adv-x="514" 
d="M346 397q141 -60 141 -196q0 -98 -63 -158.5t-166 -60.5q-85 0 -142 43t-77 123l77 38q32 -132 142 -132q64 0 103.5 37t39.5 96q0 95 -111 143l-87 37q-141 59 -141 189q0 76 56.5 126t144.5 50q132 0 185 -108l-70 -45q-47 82 -121 82q-48 0 -78.5 -29t-30.5 -75
q0 -74 96 -115z" />
    <glyph glyph-name="T" unicode="T" horiz-adv-x="507" 
d="M211 0v634h-202v81h489v-81h-201v-634h-86z" />
    <glyph glyph-name="U" unicode="U" horiz-adv-x="720" 
d="M83 715h86v-445q0 -108 46 -159t145 -51t145 51t46 159v445h86v-445q0 -289 -277 -289t-277 289v445z" />
    <glyph glyph-name="V" unicode="V" horiz-adv-x="580" 
d="M290 -28l-302 743h92l210 -547l209 547h92z" />
    <glyph glyph-name="W" unicode="W" horiz-adv-x="913" 
d="M-7 715h92l181 -526l189 554l191 -554l182 526h92l-277 -743l-187 553l-186 -553z" />
    <glyph glyph-name="X" unicode="X" horiz-adv-x="529" 
d="M-6 0l220 380l-205 335h102l153 -272l148 272h97l-203 -343l228 -372h-100l-176 308l-167 -308h-97z" />
    <glyph glyph-name="Y" unicode="Y" horiz-adv-x="572" 
d="M243 0v327l-242 388h98l187 -310l186 310h98l-242 -388v-327h-85z" />
    <glyph glyph-name="Z" unicode="Z" horiz-adv-x="566" 
d="M-5 0l402 637h-326v78h470l-398 -634h382v-81h-530z" />
    <glyph glyph-name="bracketleft" unicode="[" horiz-adv-x="288" 
d="M161 -135h89v-66h-158v932h158v-66h-89v-800z" />
    <glyph glyph-name="backslash" unicode="\" horiz-adv-x="417" 
d="M350 -93l-350 824h66l351 -824h-67z" />
    <glyph glyph-name="bracketright" unicode="]" horiz-adv-x="288" 
d="M127 -135v800h-89v66h158v-932h-158v66h89z" />
    <glyph glyph-name="asciicircum" unicode="^" horiz-adv-x="1000" 
d="M539 712l254 -272h-77l-216 214l-216 -214h-78l254 272h79z" />
    <glyph glyph-name="underscore" unicode="_" 
d="M500 -178v-58h-500v58h500z" />
    <glyph glyph-name="grave" unicode="`" 
d="M320 517h-59l-139 170h98z" />
    <glyph glyph-name="a" unicode="a" horiz-adv-x="569" 
d="M494 447v-447h-74v81q-55 -100 -162 -100q-96 0 -155 66t-59 175q0 111 57.5 176t152.5 65q112 0 164 -100v84h76zM420 219q0 77 -41.5 122.5t-107.5 45.5q-69 0 -107.5 -42.5t-38.5 -118.5q0 -81 39 -125t110 -44q68 0 107 42.5t39 119.5z" />
    <glyph glyph-name="b" unicode="b" horiz-adv-x="572" 
d="M78 757h76v-394q52 100 163 100q95 0 153 -65t58 -176q0 -109 -59 -175t-155 -66q-108 0 -163 100v-81h-73v757zM151 221q0 -79 40 -122.5t110 -43.5q67 0 106.5 46.5t39.5 129.5q0 74 -38.5 115t-105.5 41q-68 0 -110 -45.5t-42 -120.5z" />
    <glyph glyph-name="c" unicode="c" horiz-adv-x="449" 
d="M421 106v-89q-61 -36 -150 -36q-104 0 -167 66t-63 172q0 109 66 176.5t167 67.5q75 0 139 -31v-82q-59 39 -124 39q-74 0 -120 -46.5t-46 -125.5q0 -68 45.5 -115t114.5 -47q67 0 138 51z" />
    <glyph glyph-name="d" unicode="d" horiz-adv-x="572" 
d="M494 757v-757h-74v81q-55 -100 -162 -100q-96 0 -155 66t-59 175q0 111 58 176t153 65q111 0 163 -100v394h76zM420 221q0 75 -41.5 120.5t-109.5 45.5q-67 0 -105.5 -41t-38.5 -115q0 -83 39 -129.5t106 -46.5q70 0 110 43.5t40 122.5z" />
    <glyph glyph-name="e" unicode="e" horiz-adv-x="514" 
d="M477 212h-354v-7q0 -72 41.5 -116t106.5 -44q90 0 145 97l58 -39q-68 -122 -207 -122q-102 0 -165 67.5t-63 176.5q0 105 62.5 172t160.5 67q99 0 157 -63.5t58 -173.5v-15zM395 274q-4 59 -39.5 91t-96.5 32q-55 0 -92.5 -33.5t-43.5 -89.5h272z" />
    <glyph glyph-name="f" unicode="f" horiz-adv-x="289" 
d="M98 0v384h-86v63h86v129q0 106 26 148t103 42q36 0 66 -10v-79q-29 16 -60 16q-40 0 -49.5 -27t-9.5 -100v-119h119v-63h-117v-384h-78z" />
    <glyph glyph-name="g" unicode="g" horiz-adv-x="571" 
d="M494 447v-439q0 -41 -1.5 -61.5t-11 -48.5t-29.5 -49q-62 -67 -180 -67q-102 0 -159 47t-59 131h86v-6q0 -50 34.5 -77.5t98.5 -27.5q93 0 128 59q19 31 19 102v35v40q-54 -99 -162 -99q-96 0 -155 65.5t-59 173.5q0 110 57.5 174t152.5 64q114 0 164 -99v83h76zM420 222
q0 77 -41.5 122t-107.5 45q-69 0 -107.5 -42.5t-38.5 -118.5q0 -81 39 -125t110 -44q68 0 107 43t39 120z" />
    <glyph glyph-name="h" unicode="h" horiz-adv-x="557" 
d="M78 0v757h75v-379q57 85 163 85q78 0 123 -42t45 -117v-304h-78v263q0 134 -117 134q-70 0 -109 -48q-18 -22 -22 -47t-4 -71v-231h-76z" />
    <glyph glyph-name="i" unicode="i" horiz-adv-x="242" 
d="M82 0v447h77v-447h-77zM64 662q0 23 16.5 39.5t39.5 16.5t39.5 -17t16.5 -40t-16.5 -39t-39.5 -16t-39.5 16t-16.5 40z" />
    <glyph glyph-name="j" unicode="j" horiz-adv-x="242" 
d="M82 -218v665h77v-665h-77zM64 662q0 23 16.5 39.5t39.5 16.5t39.5 -17t16.5 -40t-16.5 -39t-39.5 -16t-39.5 16t-16.5 40z" />
    <glyph glyph-name="k" unicode="k" horiz-adv-x="493" 
d="M79 0v757h77v-513l215 203h102l-223 -205l243 -242h-107l-230 236v-236h-77z" />
    <glyph glyph-name="l" unicode="l" horiz-adv-x="242" 
d="M82 0v757h78v-757h-78z" />
    <glyph glyph-name="m" unicode="m" horiz-adv-x="848" 
d="M700 0v263q0 134 -111 134q-64 0 -101 -48q-16 -21 -20.5 -47t-4.5 -71v-231h-74v263q0 134 -111 134q-65 0 -102 -48q-16 -21 -20 -46t-4 -72v-231h-74v447h75v-69q55 85 155 85q111 0 150 -91q57 91 159 91q75 0 117 -42t42 -117v-304h-76z" />
    <glyph glyph-name="n" unicode="n" horiz-adv-x="557" 
d="M78 0v447h75v-69q57 85 163 85q78 0 123 -42t45 -117v-304h-78v263q0 134 -117 134q-70 0 -109 -48q-18 -22 -22 -47t-4 -71v-231h-76z" />
    <glyph glyph-name="o" unicode="o" horiz-adv-x="569" 
d="M42 222q0 102 71 171q70 70 172 70q99 0 172 -71q71 -69 71 -170q0 -100 -71 -169q-74 -72 -172 -72q-101 0 -172 71t-71 170zM123 222q0 -71 47.5 -120t114.5 -49t114 49t47 120t-47 120t-114 49q-68 0 -115 -49t-47 -120z" />
    <glyph glyph-name="p" unicode="p" horiz-adv-x="572" 
d="M78 -218v665h73v-84q54 100 163 100q96 0 155 -65.5t59 -175.5q0 -112 -58 -176.5t-153 -64.5q-111 0 -163 100v-299h-76zM152 222q0 -75 41.5 -120.5t109.5 -45.5q67 0 105.5 41.5t38.5 115.5q0 83 -39 129.5t-106 46.5q-70 0 -110 -44t-40 -123z" />
    <glyph glyph-name="q" unicode="q" horiz-adv-x="572" 
d="M494 -218h-76v299q-52 -100 -163 -100q-95 0 -153 64.5t-58 176.5q0 110 59 175.5t155 65.5q108 0 162 -100v84h74v-665zM420 222q0 79 -40 123t-110 44q-67 0 -106.5 -46.5t-39.5 -129.5q0 -74 38.5 -115.5t105.5 -41.5q68 0 110 45.5t42 120.5z" />
    <glyph glyph-name="r" unicode="r" horiz-adv-x="351" 
d="M79 0v447h68v-93q30 58 64.5 83t85.5 25q27 0 52 -9l-26 -69q-25 9 -47 9q-121 0 -121 -175v-218h-76z" />
    <glyph glyph-name="s" unicode="s" horiz-adv-x="407" 
d="M31 75l65 44q37 -71 114 -71q38 0 61 18.5t23 48.5q0 25 -16.5 40.5t-53.5 27.5q-103 36 -130 54q-46 32 -46 91t43.5 97t114.5 38q58 0 99.5 -23t59.5 -66l-62 -38q-28 64 -102 64q-34 0 -55 -19t-21 -48q0 -9 2 -16t5 -12.5t10 -10.5t12 -8t17 -7.5t19.5 -7t24 -7.5
t25.5 -8q69 -22 99.5 -51.5t30.5 -81.5q0 -63 -44.5 -102.5t-118.5 -39.5q-124 0 -176 94z" />
    <glyph glyph-name="t" unicode="t" horiz-adv-x="259" 
d="M90 384h-82v63h82v180h78v-180h82v-63h-82v-384h-78v384z" />
    <glyph glyph-name="u" unicode="u" horiz-adv-x="547" 
d="M150 447v-220q0 -92 27 -132.5t98 -40.5t97.5 40.5t26.5 132.5v220h78v-261q0 -101 -51.5 -153t-152.5 -52q-99 0 -151 52t-52 153v261h80z" />
    <glyph glyph-name="v" unicode="v" horiz-adv-x="449" 
d="M225 -28l-221 475h86l134 -312l135 312h86z" />
    <glyph glyph-name="w" unicode="w" horiz-adv-x="692" 
d="M352 463l134 -321l120 305h86l-199 -475l-147 343l-147 -343l-199 475h85l119 -305l136 321h12z" />
    <glyph glyph-name="x" unicode="x" horiz-adv-x="433" 
d="M0 0l172 231l-167 216h95l116 -160l117 160h95l-168 -216l173 -231h-95l-122 173l-121 -173h-95z" />
    <glyph glyph-name="y" unicode="y" horiz-adv-x="440" 
d="M60 -218l121 262l-175 403h88l130 -321l138 321h84l-300 -665h-86z" />
    <glyph glyph-name="z" unicode="z" horiz-adv-x="431" 
d="M15 0l256 380h-240v67h375l-256 -380h254v-67h-389z" />
    <glyph glyph-name="braceleft" unicode="{" 
d="M419 659q-4 0 -11.5 0.5t-10.5 0.5q-62 0 -81.5 -25t-19.5 -94v-118q0 -76 -19.5 -112t-77.5 -52q58 -16 77.5 -52t19.5 -112v-118q0 -70 20 -94t84 -24h19v-61h-17q-89 0 -128 25q-31 20 -40 54.5t-9 98.5v119q0 73 -26.5 103.5t-92.5 30.5q-3 0 -10.5 -0.5t-11.5 -0.5
v62q4 0 11.5 -0.5t10.5 -0.5q66 0 92.5 30.5t26.5 104.5v119q0 65 9 99t40 54q39 25 128 25h17v-62z" />
    <glyph glyph-name="bar" unicode="|" 
d="M281 764v-1000h-62v1000h62z" />
    <glyph glyph-name="braceright" unicode="}" 
d="M275 543v-119q0 -74 27 -104.5t93 -30.5q3 0 10.5 0.5t11.5 0.5v-62q-4 0 -11.5 0.5t-10.5 0.5q-66 0 -93 -30.5t-27 -104.5v-118q0 -65 -9 -99.5t-39 -54.5q-36 -24 -126 -24h-20v61q4 0 11.5 -0.5t10.5 -0.5q62 0 81.5 25t19.5 95v117q0 76 19.5 112t77.5 52
q-58 16 -77.5 52t-19.5 112v118q0 70 -20 94.5t-84 24.5h-19v61h17q90 0 129 -25q30 -20 39 -54t9 -99z" />
    <glyph glyph-name="asciitilde" unicode="~" horiz-adv-x="833" 
d="M747 306q-98 -70 -189 -70q-42 0 -93 17l-48.5 17t-51 17t-42.5 10.5t-48 5.5q-77 0 -188 -78v65q103 71 189 71q52 0 142 -32q5 -2 27 -10t30 -10.5l25 -7.5t31 -6.5t28 -1.5q78 0 188 77v-64z" />
    <glyph glyph-name="exclamdown" unicode="&#xa1;" horiz-adv-x="319" 
d="M121 551h78v-570h-78v570zM102 674q0 24 16.5 40.5t41.5 16.5t41.5 -16.5t16.5 -40.5t-17 -41t-41 -17t-41 17t-17 41z" />
    <glyph glyph-name="cent" unicode="&#xa2;" horiz-adv-x="590" 
d="M472 486q-58 37 -137 42v-328q94 11 138 47l-1 -84q-57 -34 -137 -35v-99h-39v101q-97 5 -157.5 69t-60.5 160q0 97 58.5 161t159.5 76v79h39v-77q65 0 137 -29v-83zM296 525q-58 -6 -96.5 -51.5t-38.5 -107.5q0 -68 36 -112.5t99 -52.5v324z" />
    <glyph glyph-name="sterling" unicode="&#xa3;" horiz-adv-x="590" 
d="M42 24q54 85 122 91q22 43 22 91q0 40 -24 82h-115v57h88q-42 101 -42 154q0 98 63.5 160.5t168.5 62.5q98 0 154.5 -55.5t64.5 -160.5l-81 -19q-4 81 -41 124t-102 43q-61 0 -100.5 -41t-39.5 -106q0 -66 44 -162h188v-57h-167q13 -30 13 -64q0 -55 -45 -109h4
q43 0 104.5 -27t85.5 -27q48 0 87 61l65 -43q-53 -98 -151 -98q-38 0 -80 17q-9 4 -28 11.5t-27 11t-22.5 9t-23.5 7.5t-19.5 4t-19.5 2q-50 0 -91 -62z" />
    <glyph glyph-name="currency" unicode="&#xa4;" horiz-adv-x="606" 
d="M178 592q58 44 125 44q69 0 127 -44l100 101l35 -36l-100 -100q42 -55 42 -125t-42 -125l100 -100l-35 -36l-100 101q-55 -43 -127 -43q-70 0 -125 43l-101 -101l-35 36l101 100q-43 57 -43 125t43 125l-101 100l35 36zM457 433q0 63 -44.5 108t-108.5 45t-108.5 -45
t-44.5 -108q0 -64 44.5 -109t108.5 -45q63 0 108 45.5t45 108.5z" />
    <glyph glyph-name="yen" unicode="&#xa5;" horiz-adv-x="590" 
d="M253 0v307h-243v60h215l-42 68h-173v60h135l-133 213h92l192 -317l192 317h90l-134 -213h136v-60h-173l-43 -68l216 1v-61h-243v-307h-84z" />
    <glyph glyph-name="brokenbar" unicode="&#xa6;" 
d="M281 699v-370h-62v370h62zM281 199v-370h-62v370h62z" />
    <glyph glyph-name="section" unicode="&#xa7;" horiz-adv-x="525" 
d="M75 -44h83q3 -103 101 -103q49 0 75 23t26 65q0 43 -26.5 63.5t-90.5 45.5q-102 40 -145.5 82.5t-43.5 119.5q0 68 37 116.5t100 61.5q-111 43 -111 144q0 72 50 115t137 43q83 0 126.5 -42t43.5 -121v-10h-77q-3 102 -98 102q-44 0 -69 -23.5t-25 -64.5q0 -46 39 -73
q11 -8 28 -15t43 -16.5t43 -16.5q79 -34 116 -78.5t37 -114.5q0 -135 -137 -173q104 -32 104 -148q0 -74 -48.5 -116.5t-135.5 -42.5q-83 0 -132.5 45.5t-49.5 121.5v10zM263 139q51 0 87 35t36 85t-35.5 84.5t-87.5 34.5t-87.5 -34.5t-35.5 -84.5t36 -85t87 -35z" />
    <glyph glyph-name="dieresis" unicode="&#xa8;" 
d="M106 597q0 22 17 38.5t39 16.5t38 -16t16 -39q0 -24 -15 -39.5t-39 -15.5t-40 15.5t-16 39.5zM284 597q0 22 16.5 38.5t38.5 16.5q23 0 39 -16t16 -39q0 -24 -15.5 -39.5t-39.5 -15.5q-23 0 -39 15.5t-16 39.5z" />
    <glyph glyph-name="copyright" unicode="&#xa9;" horiz-adv-x="833" 
d="M416 713q151 0 256 -105q103 -103 103 -254t-103 -252q-110 -107 -256 -107t-252 106t-106 253q0 146 107 255q102 104 251 104zM733 354q0 132 -92 224t-225 92q-132 0 -221 -91q-94 -96 -94 -225q0 -127 93 -222q93 -93 222 -93q130 0 226 94q91 89 91 221zM520 445
q-7 38 -34.5 59t-67.5 21q-57 0 -89 -45t-32 -127q0 -79 33 -123.5t88 -44.5q42 0 71 23.5t36 65.5h63q-5 -62 -53 -101t-120 -39q-85 0 -136.5 58.5t-51.5 159.5q0 103 53 163t140 60q67 0 112.5 -36.5t50.5 -93.5h-63z" />
    <glyph glyph-name="ordfeminine" unicode="&#xaa;" horiz-adv-x="427" 
d="M371 716v-313h-56v57q-41 -70 -121 -70q-72 0 -116.5 46t-44.5 122q0 78 43.5 123.5t114.5 45.5q83 0 123 -70v59h57zM315 556q0 54 -31 86t-81 32q-52 0 -80.5 -29.5t-28.5 -83.5q0 -56 29 -87t83 -31q51 0 80 29.5t29 83.5z" />
    <glyph glyph-name="guillemotleft" unicode="&#xab;" horiz-adv-x="416" 
d="M156 24l-123 197l119 199l51 -33l-100 -166l101 -162zM334 24l-124 197l119 199l52 -33l-101 -166l102 -162z" />
    <glyph glyph-name="logicalnot" unicode="&#xac;" horiz-adv-x="833" 
d="M709 419v-245h-56v188h-529v57h585z" />
    <glyph glyph-name="registered" unicode="&#xae;" horiz-adv-x="833" 
d="M416 713q150 0 256 -106q103 -103 103 -253q0 -151 -104 -252q-110 -107 -255 -107q-146 0 -253 107q-105 105 -105 252q0 148 108 256q101 103 250 103zM733 352q0 134 -91 225q-93 93 -226 93q-132 0 -220 -90q-95 -95 -95 -226q0 -127 93 -222q91 -93 221 -93
q131 0 226 93q92 90 92 220zM426 565q171 0 171 -113q0 -43 -25.5 -72.5t-70.5 -36.5l92 -188h-77l-86 178h-87v-178h-69v410h152zM413 520h-70v-142h72q59 0 85 15.5t26 53.5q0 39 -27 56t-86 17z" />
    <glyph glyph-name="macron" unicode="&#xaf;" 
d="M118 563v68h264v-68h-264z" />
    <glyph glyph-name="degree" unicode="&#xb0;" horiz-adv-x="329" 
d="M165 710q57 0 97.5 -40.5t40.5 -97.5t-40.5 -97.5t-98.5 -40.5t-97.5 40t-39.5 98t40.5 98t97.5 40zM263 572q0 41 -28.5 69.5t-69.5 28.5t-70 -28.5t-29 -69.5q0 -42 29 -70.5t70 -28.5q42 0 70 29t28 70z" />
    <glyph glyph-name="plusminus" unicode="&#xb1;" horiz-adv-x="833" 
d="M446 576v-168h263v-57h-263v-168h-58v168h-264v57h264v168h58zM709 77v-57h-585v57h585z" />
    <glyph glyph-name="twosuperior" unicode="&#xb2;" horiz-adv-x="389" 
d="M321 330v-49h-284l100 107l33.5 36.5l32 35l25.5 29t23.5 29.5t15 24.5t11.5 26t3 23.5q0 33 -26 54t-68 21q-44 0 -68 -22.5t-24 -65.5v-5h-53v12q0 61 38.5 94.5t108.5 33.5q69 0 108 -31.5t39 -87.5q0 -43 -29 -87.5t-91 -105.5l-73 -72h178z" />
    <glyph glyph-name="threesuperior" unicode="&#xb3;" horiz-adv-x="389" 
d="M36 390h58v-5q0 -33 23.5 -52.5t64.5 -19.5q46 0 71.5 22t25.5 61q0 84 -103 84h-16v42q2 0 7 -0.5t8 -0.5q98 0 98 77q0 33 -22.5 53t-61.5 20q-84 0 -89 -71h-55q3 55 40.5 84.5t105.5 29.5q66 0 103.5 -30.5t37.5 -83.5q0 -79 -84 -100q42 -6 66 -34t24 -72
q0 -57 -42 -90.5t-116 -33.5q-66 0 -105 30.5t-39 81.5v8z" />
    <glyph glyph-name="acute" unicode="&#xb4;" 
d="M180 517l100 170h98l-139 -170h-59z" />
    <glyph glyph-name="mu" unicode="&#xb5;" horiz-adv-x="551" 
d="M177 522l-62 -291q-7 -31 -7 -67q0 -53 27.5 -82t78.5 -29q121 0 164 200l59 269h76l-79 -368q-11 -49 -11 -66q0 -32 35 -32q8 0 17 1l-13 -61q-21 -5 -45 -5q-34 0 -51 17t-20 55q-42 -72 -141 -72q-85 0 -128 67l-55 -266h-76l154 730h77z" />
    <glyph glyph-name="paragraph" unicode="&#xb6;" 
d="M463 684h-61v-684h-46v684h-90v-684h-46v382q-85 4 -134 50.5t-49 119.5q0 76 52 123t140 47h234v-38z" />
    <glyph glyph-name="periodcentered" unicode="&#xb7;" horiz-adv-x="295" 
d="M89 352q0 24 17 41t41 17q25 0 42 -17t17 -41t-17 -41t-42 -17t-41.5 17t-16.5 41z" />
    <glyph glyph-name="cedilla" unicode="&#xb8;" 
d="M125 -208v49q80 -19 120 -19q59 0 59 40q0 42 -65 42q-16 0 -26 -1v97h37v-50h14q109 0 109 -88q0 -92 -122 -92q-50 0 -126 22z" />
    <glyph glyph-name="onesuperior" unicode="&#xb9;" horiz-adv-x="390" 
d="M180 281v380h-96l31 45h120v-425h-55z" />
    <glyph glyph-name="ordmasculine" unicode="&#xba;" horiz-adv-x="427" 
d="M32 558q0 72 53 120q52 49 129 49q76 0 129 -50q53 -48 53 -119q0 -68 -53 -118q-55 -50 -129 -50q-77 0 -129 49q-53 50 -53 119zM92 558q0 -49 36 -83.5t86 -34.5t85.5 34.5t35.5 83.5q0 50 -35.5 84.5t-85.5 34.5q-51 0 -86.5 -34.5t-35.5 -84.5z" />
    <glyph glyph-name="guillemotright" unicode="&#xbb;" horiz-adv-x="416" 
d="M259 24l-49 35l102 162l-101 166l52 33l119 -199zM81 24l-48 35l101 162l-100 166l51 33l119 -199z" />
    <glyph glyph-name="onequarter" unicode="&#xbc;" horiz-adv-x="911" 
d="M172 309v355h-92l30 41h114v-396h-52zM205 -19l439 741h61l-439 -741h-61zM764 125v176l-132 -176h132zM764 0v86h-211l241 318h23v-279h53v-39h-53v-86h-53z" />
    <glyph glyph-name="onehalf" unicode="&#xbd;" horiz-adv-x="911" 
d="M172 309v355h-92l30 41h114v-396h-52zM205 -19l439 741h61l-439 -741h-61zM846 45v-45h-272l95 100l25.5 27t24.5 26t21.5 23t20 22l15.5 20t13.5 20t9 17.5t6.5 18t2 17.5q0 30 -24.5 50t-64.5 20q-88 0 -88 -83v-4h-51v10q0 57 37 88.5t104 31.5q66 0 103 -29.5
t37 -81.5q0 -40 -27.5 -81.5t-86.5 -98.5l-71 -68h171z" />
    <glyph glyph-name="threequarters" unicode="&#xbe;" horiz-adv-x="910" 
d="M35 410h54v-4q0 -31 23 -49t61 -18q45 0 69 20.5t24 57.5q0 78 -98 78q-10 0 -16 -1v40q2 0 7 -0.5t8 -0.5q94 0 94 72q0 31 -21.5 49.5t-58.5 18.5q-39 0 -61.5 -17.5t-23.5 -49.5h-53q3 52 38.5 79.5t100.5 27.5q63 0 99 -28.5t36 -77.5q0 -36 -21 -60.5t-59 -33.5
q40 -5 63 -31.5t23 -66.5q0 -54 -40 -85.5t-112 -31.5q-62 0 -99 29t-37 76v7zM205 -19l439 741h61l-439 -741h-61zM764 125v176l-132 -176h132zM764 0v86h-211l241 318h23v-279h53v-39h-53v-86h-53z" />
    <glyph glyph-name="questiondown" unicode="&#xbf;" horiz-adv-x="521" 
d="M189 387h-76v15q0 75 39.5 115.5t111.5 40.5q68 0 106 -38t38 -104q0 -50 -28.5 -85.5t-91.5 -79.5q-7 -5 -21.5 -14.5l-20.5 -13.5t-17 -12.5t-16 -13l-13 -12t-11 -13l-7 -13t-5.5 -15t-1.5 -16.5q0 -33 23.5 -53.5t62.5 -20.5q44 0 67.5 27t23.5 77h79v-13
q0 -74 -46.5 -119t-123.5 -45q-80 0 -125.5 42t-45.5 115q0 49 30 84.5t99 81.5l25.5 16.5t25 16.5l19 14.5t17.5 16l11 15.5t9 20t2 22q0 27 -18.5 44.5t-47.5 17.5q-73 0 -73 -96v-4zM330 673q0 -24 -17 -41t-41 -17t-41 17t-17 41t16.5 41t41.5 17t41.5 -17t16.5 -41z
" />
    <glyph glyph-name="Agrave" unicode="&#xc0;" horiz-adv-x="625" 
d="M312 743l325 -743h-92l-93 219h-279l-93 -219h-92zM312 555l-114 -263h228zM383 786h-59l-139 170h98z" />
    <glyph glyph-name="Aacute" unicode="&#xc1;" horiz-adv-x="625" 
d="M312 743l325 -743h-92l-93 219h-279l-93 -219h-92zM312 555l-114 -263h228zM243 786l100 170h98l-139 -170h-59z" />
    <glyph glyph-name="Acircumflex" unicode="&#xc2;" horiz-adv-x="625" 
d="M312 743l325 -743h-92l-93 219h-279l-93 -219h-92zM312 555l-114 -263h228zM169 786l96 170h96l96 -170h-60l-84 112l-85 -112h-59z" />
    <glyph glyph-name="Atilde" unicode="&#xc3;" horiz-adv-x="625" 
d="M312 743l325 -743h-92l-93 219h-279l-93 -219h-92zM312 555l-114 -263h228zM456 922q-20 -102 -96 -102q-14 0 -32 5l-47 13q-13 4 -24 4q-30 0 -44 -33h-43q9 48 33.5 74t60.5 26q17 0 29 -4l48 -14q18 -5 26 -5q33 0 46 36h43z" />
    <glyph glyph-name="Adieresis" unicode="&#xc4;" horiz-adv-x="625" 
d="M312 743l325 -743h-92l-93 219h-279l-93 -219h-92zM312 555l-114 -263h228zM169 866q0 22 17 38.5t39 16.5t38 -16t16 -39q0 -24 -15 -39.5t-39 -15.5t-40 15.5t-16 39.5zM347 866q0 22 16.5 38.5t38.5 16.5t38.5 -16.5t16.5 -38.5q0 -24 -15.5 -39.5t-39.5 -15.5
q-23 0 -39 15.5t-16 39.5z" />
    <glyph glyph-name="Aring" unicode="&#xc5;" horiz-adv-x="625" 
d="M312 555l-114 -263h228zM307 713h13l317 -713h-92l-93 219h-279l-93 -219h-92zM196 846q0 50 34 83.5t83 33.5t83 -33.5t34 -83.5t-34 -83.5t-83 -33.5t-83 33.5t-34 83.5zM253 846q0 -26 17.5 -43.5t42.5 -17.5q26 0 44 18t18 43t-18.5 43t-43.5 18t-42.5 -18t-17.5 -43
z" />
    <glyph glyph-name="AE" unicode="&#xc6;" horiz-adv-x="863" 
d="M198 292h228l-114 278zM-12 0l303 715h375l13 -76h-315l89 -210h311l14 -76h-292l116 -274h299l14 -79h-370l-93 219h-279l-93 -219h-92z" />
    <glyph glyph-name="Ccedilla" unicode="&#xc7;" horiz-adv-x="725" 
d="M666 544q-100 109 -238 109q-120 0 -204 -87q-82 -85 -82 -211q0 -99 49 -169q43 -61 105.5 -94t135.5 -33q137 0 234 113v-113q-109 -78 -241 -78q-116 0 -211 66q-78 54 -119.5 133t-41.5 174q0 164 112 273q109 105 266 105q123 0 235 -77v-111zM299 -208v49
q80 -19 120 -19q59 0 59 40q0 42 -65 42q-16 0 -26 -1v97h37v-50h14q109 0 109 -88q0 -92 -122 -92q-50 0 -126 22z" />
    <glyph glyph-name="Egrave" unicode="&#xc8;" horiz-adv-x="521" 
d="M86 0v715h377v-78h-292v-205h292v-79h-292v-274h292v-79h-377zM347 786h-59l-139 170h98z" />
    <glyph glyph-name="Eacute" unicode="&#xc9;" horiz-adv-x="521" 
d="M86 0v715h377v-78h-292v-205h292v-79h-292v-274h292v-79h-377zM207 786l100 170h98l-139 -170h-59z" />
    <glyph glyph-name="Ecircumflex" unicode="&#xca;" horiz-adv-x="521" 
d="M86 0v715h377v-78h-292v-205h292v-79h-292v-274h292v-79h-377zM133 786l96 170h96l96 -170h-60l-84 112l-85 -112h-59z" />
    <glyph glyph-name="Edieresis" unicode="&#xcb;" horiz-adv-x="521" 
d="M86 0v715h377v-78h-292v-205h292v-79h-292v-274h292v-79h-377zM133 866q0 22 17 38.5t39 16.5t38 -16t16 -39q0 -24 -15 -39.5t-39 -15.5t-40 15.5t-16 39.5zM311 866q0 22 16.5 38.5t38.5 16.5t38.5 -16.5t16.5 -38.5q0 -24 -15.5 -39.5t-39.5 -15.5q-23 0 -39 15.5
t-16 39.5z" />
    <glyph glyph-name="Igrave" unicode="&#xcc;" horiz-adv-x="259" 
d="M87 0v715h85v-715h-85zM200 786h-59l-139 170h98z" />
    <glyph glyph-name="Iacute" unicode="&#xcd;" horiz-adv-x="259" 
d="M87 0v715h85v-715h-85zM60 786l100 170h98l-139 -170h-59z" />
    <glyph glyph-name="Icircumflex" unicode="&#xce;" horiz-adv-x="259" 
d="M87 0v715h85v-715h-85zM-14 786l96 170h96l96 -170h-60l-84 112l-85 -112h-59z" />
    <glyph glyph-name="Idieresis" unicode="&#xcf;" horiz-adv-x="259" 
d="M87 0v715h85v-715h-85zM-14 866q0 22 17 38.5t39 16.5t38 -16t16 -39q0 -24 -15 -39.5t-39 -15.5t-40 15.5t-16 39.5zM164 866q0 22 16.5 38.5t38.5 16.5q23 0 39 -16.5t16 -38.5q0 -24 -15.5 -39.5t-39.5 -15.5q-23 0 -39 15.5t-16 39.5z" />
    <glyph glyph-name="Eth" unicode="&#xd0;" horiz-adv-x="729" 
d="M176 80h55q75 0 113 2t82 13.5t72 35.5q89 74 89 227q0 152 -89 226q-40 34 -98.5 43t-168.5 9h-55v-200h194v-74h-194v-282zM90 0v362h-90v74h90v279h137q86 0 128.5 -2.5t98.5 -17.5t97 -47q126 -97 126 -291q0 -193 -126 -290q-56 -43 -121.5 -55t-171.5 -12h-31h-137
z" />
    <glyph glyph-name="Ntilde" unicode="&#xd1;" horiz-adv-x="775" 
d="M86 0v743l523 -571v543h81v-743l-523 565v-537h-81zM531 922q-20 -102 -96 -102q-14 0 -32 5l-47 13q-13 4 -24 4q-30 0 -44 -33h-43q9 48 33.5 74t60.5 26q17 0 29 -4l48 -14q18 -5 26 -5q32 0 46 36h43z" />
    <glyph glyph-name="Ograve" unicode="&#xd2;" horiz-adv-x="870" 
d="M817 356q0 -157 -111 -265q-113 -110 -271 -110q-157 0 -270 110q-112 109 -112 265q0 157 112 266t270 109q159 0 271 -109q111 -108 111 -266zM435 61q120 0 207 87q86 86 86 208q0 124 -86 210t-207 86q-123 0 -207 -86q-86 -88 -86 -210q0 -120 86 -208
q87 -87 207 -87zM505 786h-59l-139 170h98z" />
    <glyph glyph-name="Oacute" unicode="&#xd3;" horiz-adv-x="870" 
d="M817 356q0 -157 -111 -265q-113 -110 -271 -110q-157 0 -270 110q-112 109 -112 265q0 157 112 266t270 109q159 0 271 -109q111 -108 111 -266zM435 61q120 0 207 87q86 86 86 208q0 124 -86 210t-207 86q-123 0 -207 -86q-86 -88 -86 -210q0 -120 86 -208
q87 -87 207 -87zM365 786l100 170h98l-139 -170h-59z" />
    <glyph glyph-name="Ocircumflex" unicode="&#xd4;" horiz-adv-x="870" 
d="M817 356q0 -157 -111 -265q-113 -110 -271 -110q-157 0 -270 110q-112 109 -112 265q0 157 112 266t270 109q159 0 271 -109q111 -108 111 -266zM435 61q120 0 207 87q86 86 86 208q0 124 -86 210t-207 86q-123 0 -207 -86q-86 -88 -86 -210q0 -120 86 -208
q87 -87 207 -87zM291 786l96 170h96l96 -170h-60l-84 112l-85 -112h-59z" />
    <glyph glyph-name="Otilde" unicode="&#xd5;" horiz-adv-x="870" 
d="M817 356q0 -157 -111 -265q-113 -110 -271 -110q-157 0 -270 110q-112 109 -112 265q0 157 112 266t270 109q159 0 271 -109q111 -108 111 -266zM435 61q120 0 207 87q86 86 86 208q0 124 -86 210t-207 86q-123 0 -207 -86q-86 -88 -86 -210q0 -120 86 -208
q87 -87 207 -87zM578 922q-20 -102 -96 -102q-14 0 -32 5l-47 13q-13 4 -24 4q-31 0 -44 -33h-43q9 48 33.5 74t60.5 26q17 0 29 -4l48 -14q18 -5 26 -5q33 0 46 36h43z" />
    <glyph glyph-name="Odieresis" unicode="&#xd6;" horiz-adv-x="870" 
d="M817 356q0 -157 -111 -265q-113 -110 -271 -110q-157 0 -270 110q-112 109 -112 265q0 157 112 266t270 109q159 0 271 -109q111 -108 111 -266zM435 61q120 0 207 87q86 86 86 208q0 124 -86 210t-207 86q-123 0 -207 -86q-86 -88 -86 -210q0 -120 86 -208
q87 -87 207 -87zM291 866q0 22 17 38.5t39 16.5t38 -16t16 -39q0 -24 -15 -39.5t-39 -15.5t-40 15.5t-16 39.5zM469 866q0 22 16.5 38.5t38.5 16.5t38.5 -16.5t16.5 -38.5q0 -24 -15.5 -39.5t-39.5 -15.5q-23 0 -39 15.5t-16 39.5z" />
    <glyph glyph-name="multiply" unicode="&#xd7;" horiz-adv-x="833" 
d="M419 338l232 233l40 -40l-232 -233l232 -232l-40 -40l-232 232l-233 -232l-39 40l232 232l-232 233l39 40z" />
    <glyph glyph-name="Oslash" unicode="&#xd8;" horiz-adv-x="870" 
d="M118 -24l-39 40l78 84q-104 102 -104 257q0 156 112 265q112 110 270 110q134 0 236 -81l78 83l39 -39l-75 -80q104 -101 104 -258q0 -156 -112 -265t-270 -109q-124 0 -236 80zM256 123q77 -61 179 -61q123 0 208 85q85 87 85 213q0 104 -73 193zM615 591
q-82 62 -180 62q-121 0 -207 -86t-86 -210q0 -119 73 -195z" />
    <glyph glyph-name="Ugrave" unicode="&#xd9;" horiz-adv-x="720" 
d="M83 715h86v-445q0 -108 46 -159t145 -51t145 51t46 159v445h86v-445q0 -289 -277 -289t-277 289v445zM430 786h-59l-139 170h98z" />
    <glyph glyph-name="Uacute" unicode="&#xda;" horiz-adv-x="720" 
d="M83 715h86v-445q0 -108 46 -159t145 -51t145 51t46 159v445h86v-445q0 -289 -277 -289t-277 289v445zM290 786l100 170h98l-139 -170h-59z" />
    <glyph glyph-name="Ucircumflex" unicode="&#xdb;" horiz-adv-x="720" 
d="M83 715h86v-445q0 -108 46 -159t145 -51t145 51t46 159v445h86v-445q0 -289 -277 -289t-277 289v445zM216 786l96 170h96l96 -170h-60l-84 112l-85 -112h-59z" />
    <glyph glyph-name="Udieresis" unicode="&#xdc;" horiz-adv-x="720" 
d="M83 715h86v-445q0 -108 46 -159t145 -51t145 51t46 159v445h86v-445q0 -289 -277 -289t-277 289v445zM216 866q0 22 17 38.5t39 16.5t38 -16t16 -39q0 -24 -15 -39.5t-39 -15.5t-40 15.5t-16 39.5zM394 866q0 22 16.5 38.5t38.5 16.5q23 0 39 -16.5t16 -38.5
q0 -24 -15.5 -39.5t-39.5 -15.5q-23 0 -39 15.5t-16 39.5z" />
    <glyph glyph-name="Yacute" unicode="&#xdd;" horiz-adv-x="572" 
d="M243 0v327l-242 388h98l187 -310l186 310h98l-242 -388v-327h-85zM216 786l100 170h98l-139 -170h-59z" />
    <glyph glyph-name="Thorn" unicode="&#xde;" 
d="M169 174v-174h-83v715h83v-146h43h13q49 0 75.5 -1.5t59 -10t56.5 -25.5q73 -52 73 -161t-73 -161q-33 -23 -73 -29.5t-107 -6.5h-24h-43zM169 252h43q101 0 143 22t42 92q0 74 -43 99.5t-142 25.5h-43v-239z" />
    <glyph glyph-name="germandbls" unicode="&#xdf;" horiz-adv-x="574" 
d="M83 0v386h-63v64h63v128q0 89 50.5 138.5t140.5 49.5q87 0 139.5 -51t52.5 -134q0 -123 -103 -152q78 -5 121 -60t43 -150q0 -106 -62 -170.5t-165 -64.5q-25 0 -68 10v75q29 -14 66 -14q69 0 106.5 42.5t37.5 121.5q0 169 -169 169q-8 0 -28 -2v72q8 -1 22 -1
q119 0 119 114q0 59 -28.5 89.5t-83.5 30.5q-72 0 -101 -52q-14 -23 -14 -91v-45v-503h-76z" />
    <glyph glyph-name="agrave" unicode="&#xe0;" horiz-adv-x="569" 
d="M494 447v-447h-74v81q-55 -100 -162 -100q-96 0 -155 66t-59 175q0 111 57.5 176t152.5 65q112 0 164 -100v84h76zM420 219q0 77 -41.5 122.5t-107.5 45.5q-69 0 -107.5 -42.5t-38.5 -118.5q0 -81 39 -125t110 -44q68 0 107 42.5t39 119.5zM355 517h-59l-139 170h98z" />
    <glyph glyph-name="aacute" unicode="&#xe1;" horiz-adv-x="569" 
d="M494 447v-447h-74v81q-55 -100 -162 -100q-96 0 -155 66t-59 175q0 111 57.5 176t152.5 65q112 0 164 -100v84h76zM420 219q0 77 -41.5 122.5t-107.5 45.5q-69 0 -107.5 -42.5t-38.5 -118.5q0 -81 39 -125t110 -44q68 0 107 42.5t39 119.5zM215 517l100 170h98l-139 -170
h-59z" />
    <glyph glyph-name="acircumflex" unicode="&#xe2;" horiz-adv-x="569" 
d="M494 447v-447h-74v81q-55 -100 -162 -100q-96 0 -155 66t-59 175q0 111 57.5 176t152.5 65q112 0 164 -100v84h76zM420 219q0 77 -41.5 122.5t-107.5 45.5q-69 0 -107.5 -42.5t-38.5 -118.5q0 -81 39 -125t110 -44q68 0 107 42.5t39 119.5zM141 517l96 170h96l96 -170
h-60l-84 112l-85 -112h-59z" />
    <glyph glyph-name="atilde" unicode="&#xe3;" horiz-adv-x="569" 
d="M494 447v-447h-74v81q-55 -100 -162 -100q-96 0 -155 66t-59 175q0 111 57.5 176t152.5 65q112 0 164 -100v84h76zM420 219q0 77 -41.5 122.5t-107.5 45.5q-69 0 -107.5 -42.5t-38.5 -118.5q0 -81 39 -125t110 -44q68 0 107 42.5t39 119.5zM428 653q-20 -102 -96 -102
q-14 0 -32 5l-47 13q-13 4 -24 4q-31 0 -44 -33h-43q9 48 33.5 74t60.5 26q17 0 29 -4l48 -14q18 -5 26 -5q33 0 46 36h43z" />
    <glyph glyph-name="adieresis" unicode="&#xe4;" horiz-adv-x="569" 
d="M494 447v-447h-74v81q-55 -100 -162 -100q-96 0 -155 66t-59 175q0 111 57.5 176t152.5 65q112 0 164 -100v84h76zM420 219q0 77 -41.5 122.5t-107.5 45.5q-69 0 -107.5 -42.5t-38.5 -118.5q0 -81 39 -125t110 -44q68 0 107 42.5t39 119.5zM141 597q0 22 17 38.5t39 16.5
t38 -16t16 -39q0 -24 -15 -39.5t-39 -15.5t-40 15.5t-16 39.5zM319 597q0 22 16.5 38.5t38.5 16.5t38.5 -16t16.5 -39q0 -24 -15.5 -39.5t-39.5 -15.5q-23 0 -39 15.5t-16 39.5z" />
    <glyph glyph-name="aring" unicode="&#xe5;" horiz-adv-x="569" 
d="M153 612q0 50 33.5 83.5t83.5 33.5t83.5 -33.5t33.5 -83.5t-33.5 -83.5t-83.5 -33.5t-83.5 33.5t-33.5 83.5zM210 613q0 -26 17.5 -43.5t42.5 -17.5q26 0 44 18t18 43t-18.5 43t-43.5 18t-42.5 -18t-17.5 -43zM420 219q0 77 -41.5 122.5t-107.5 45.5q-69 0 -107.5 -42.5
t-38.5 -118.5q0 -81 39 -125t110 -44q68 0 107 42.5t39 119.5zM494 447v-447h-74v81q-55 -100 -162 -100q-96 0 -155 66t-59 175q0 111 57.5 176t152.5 65q112 0 164 -100v84h76z" />
    <glyph glyph-name="ae" unicode="&#xe6;" horiz-adv-x="812" 
d="M416 274h273q-4 59 -39.5 91t-96.5 32q-54 0 -93.5 -34.5t-43.5 -88.5zM374 80q-47 -98 -177 -98q-78 0 -124.5 43.5t-46.5 115.5q0 73 47.5 115t129.5 42q78 0 134 -44q1 8 1 23q0 60 -36 91.5t-105 31.5q-61 0 -132 -37v71q78 29 152 29q66 0 110 -26.5t56 -71.5
q46 99 173 99q100 0 158.5 -63t58.5 -173v-16h-357q1 -75 44 -121t108 -46q94 0 144 97l58 -39q-68 -122 -207 -122q-132 0 -189 99zM104 137q0 -43 29 -66.5t85 -23.5q57 0 90.5 25t33.5 68q0 44 -31 68.5t-88 24.5q-119 0 -119 -96z" />
    <glyph glyph-name="ccedilla" unicode="&#xe7;" horiz-adv-x="449" 
d="M421 106v-89q-61 -36 -150 -36q-104 0 -167 66t-63 172q0 109 66 176.5t167 67.5q75 0 139 -31v-82q-59 39 -124 39q-74 0 -120 -46.5t-46 -125.5q0 -68 45.5 -115t114.5 -47q67 0 138 51zM135 -208v49q80 -19 120 -19q59 0 59 40q0 42 -65 42q-16 0 -26 -1v97h37v-50h14
q109 0 109 -88q0 -92 -122 -92q-50 0 -126 22z" />
    <glyph glyph-name="egrave" unicode="&#xe8;" horiz-adv-x="514" 
d="M477 212h-354v-7q0 -72 41.5 -116t106.5 -44q90 0 145 97l58 -39q-68 -122 -207 -122q-102 0 -165 67.5t-63 176.5q0 105 62.5 172t160.5 67q99 0 157 -63.5t58 -173.5v-15zM395 274q-4 59 -39.5 91t-96.5 32q-55 0 -92.5 -33.5t-43.5 -89.5h272zM327 517h-59l-139 170
h98z" />
    <glyph glyph-name="eacute" unicode="&#xe9;" horiz-adv-x="514" 
d="M477 212h-354v-7q0 -72 41.5 -116t106.5 -44q90 0 145 97l58 -39q-68 -122 -207 -122q-102 0 -165 67.5t-63 176.5q0 105 62.5 172t160.5 67q99 0 157 -63.5t58 -173.5v-15zM395 274q-4 59 -39.5 91t-96.5 32q-55 0 -92.5 -33.5t-43.5 -89.5h272zM187 517l100 170h98
l-139 -170h-59z" />
    <glyph glyph-name="ecircumflex" unicode="&#xea;" horiz-adv-x="514" 
d="M477 212h-354v-7q0 -72 41.5 -116t106.5 -44q90 0 145 97l58 -39q-68 -122 -207 -122q-102 0 -165 67.5t-63 176.5q0 105 62.5 172t160.5 67q99 0 157 -63.5t58 -173.5v-15zM395 274q-4 59 -39.5 91t-96.5 32q-55 0 -92.5 -33.5t-43.5 -89.5h272zM113 517l96 170h96
l96 -170h-60l-84 112l-85 -112h-59z" />
    <glyph glyph-name="edieresis" unicode="&#xeb;" horiz-adv-x="514" 
d="M477 212h-354v-7q0 -72 41.5 -116t106.5 -44q90 0 145 97l58 -39q-68 -122 -207 -122q-102 0 -165 67.5t-63 176.5q0 105 62.5 172t160.5 67q99 0 157 -63.5t58 -173.5v-15zM395 274q-4 59 -39.5 91t-96.5 32q-55 0 -92.5 -33.5t-43.5 -89.5h272zM113 597q0 22 17 38.5
t39 16.5t38 -16t16 -39q0 -24 -15 -39.5t-39 -15.5t-40 15.5t-16 39.5zM291 597q0 22 16.5 38.5t38.5 16.5t38.5 -16t16.5 -39q0 -24 -15.5 -39.5t-39.5 -15.5q-23 0 -39 15.5t-16 39.5z" />
    <glyph glyph-name="igrave" unicode="&#xec;" horiz-adv-x="242" 
d="M82 0v447h77v-447h-77zM191 517h-59l-139 170h98z" />
    <glyph glyph-name="iacute" unicode="&#xed;" horiz-adv-x="242" 
d="M82 0v447h77v-447h-77zM51 517l100 170h98l-139 -170h-59z" />
    <glyph glyph-name="icircumflex" unicode="&#xee;" horiz-adv-x="242" 
d="M82 0v447h77v-447h-77zM-23 517l96 170h96l96 -170h-60l-84 112l-85 -112h-59z" />
    <glyph glyph-name="idieresis" unicode="&#xef;" horiz-adv-x="242" 
d="M82 0v447h77v-447h-77zM-23 597q0 22 17 38.5t39 16.5t38 -16t16 -39q0 -24 -15 -39.5t-39 -15.5t-40 15.5t-16 39.5zM155 597q0 22 16.5 38.5t38.5 16.5t38.5 -16t16.5 -39q0 -24 -15.5 -39.5t-39.5 -15.5q-23 0 -39 15.5t-16 39.5z" />
    <glyph glyph-name="eth" unicode="&#xf0;" horiz-adv-x="569" 
d="M444 360q-35 116 -149 223l-160 -73l-28 51l136 63q-57 46 -116 78l38 54q81 -46 148 -101l168 78l29 -51l-149 -70q167 -170 167 -361q0 -126 -66 -198t-177 -72q-100 0 -173 67q-70 65 -70 159t70 159q73 67 164 67q98 0 168 -73zM123 208q0 -64 47 -109t115 -45
q67 0 114 45t47 109q0 65 -47 110t-114 45t-114.5 -45t-47.5 -110z" />
    <glyph glyph-name="ntilde" unicode="&#xf1;" horiz-adv-x="557" 
d="M78 0v447h75v-69q57 85 163 85q78 0 123 -42t45 -117v-304h-78v263q0 134 -117 134q-70 0 -109 -48q-18 -22 -22 -47t-4 -71v-231h-76zM425 653q-20 -102 -96 -102q-14 0 -32 5l-47 13q-13 4 -24 4q-30 0 -44 -33h-43q9 48 33.5 74t60.5 26q17 0 29 -4l48 -14
q18 -5 26 -5q32 0 46 36h43z" />
    <glyph glyph-name="ograve" unicode="&#xf2;" horiz-adv-x="569" 
d="M42 222q0 102 71 171q70 70 172 70q99 0 172 -71q71 -69 71 -170q0 -100 -71 -169q-74 -72 -172 -72q-101 0 -172 71t-71 170zM123 222q0 -71 47.5 -120t114.5 -49t114 49t47 120t-47 120t-114 49q-68 0 -115 -49t-47 -120zM355 517h-59l-139 170h98z" />
    <glyph glyph-name="oacute" unicode="&#xf3;" horiz-adv-x="569" 
d="M42 222q0 102 71 171q70 70 172 70q99 0 172 -71q71 -69 71 -170q0 -100 -71 -169q-74 -72 -172 -72q-101 0 -172 71t-71 170zM123 222q0 -71 47.5 -120t114.5 -49t114 49t47 120t-47 120t-114 49q-68 0 -115 -49t-47 -120zM215 517l100 170h98l-139 -170h-59z" />
    <glyph glyph-name="ocircumflex" unicode="&#xf4;" horiz-adv-x="569" 
d="M42 222q0 102 71 171q70 70 172 70q99 0 172 -71q71 -69 71 -170q0 -100 -71 -169q-74 -72 -172 -72q-101 0 -172 71t-71 170zM123 222q0 -71 47.5 -120t114.5 -49t114 49t47 120t-47 120t-114 49q-68 0 -115 -49t-47 -120zM141 517l96 170h96l96 -170h-60l-84 112
l-85 -112h-59z" />
    <glyph glyph-name="otilde" unicode="&#xf5;" horiz-adv-x="569" 
d="M42 222q0 102 71 171q70 70 172 70q99 0 172 -71q71 -69 71 -170q0 -100 -71 -169q-74 -72 -172 -72q-101 0 -172 71t-71 170zM123 222q0 -71 47.5 -120t114.5 -49t114 49t47 120t-47 120t-114 49q-68 0 -115 -49t-47 -120zM428 653q-20 -102 -96 -102q-14 0 -32 5
l-47 13q-13 4 -24 4q-31 0 -44 -33h-43q9 48 33.5 74t60.5 26q17 0 29 -4l48 -14q18 -5 26 -5q33 0 46 36h43z" />
    <glyph glyph-name="odieresis" unicode="&#xf6;" horiz-adv-x="569" 
d="M42 222q0 102 71 171q70 70 172 70q99 0 172 -71q71 -69 71 -170q0 -100 -71 -169q-74 -72 -172 -72q-101 0 -172 71t-71 170zM123 222q0 -71 47.5 -120t114.5 -49t114 49t47 120t-47 120t-114 49q-68 0 -115 -49t-47 -120zM141 597q0 22 17 38.5t39 16.5t38 -16t16 -39
q0 -24 -15 -39.5t-39 -15.5t-40 15.5t-16 39.5zM319 597q0 22 16.5 38.5t38.5 16.5t38.5 -16t16.5 -39q0 -24 -15.5 -39.5t-39.5 -15.5q-23 0 -39 15.5t-16 39.5z" />
    <glyph glyph-name="divide" unicode="&#xf7;" horiz-adv-x="833" 
d="M417 530q23 0 39.5 -16.5t16.5 -39.5t-16 -39.5t-40 -16.5t-40 16.5t-16 39.5t16.5 39.5t39.5 16.5zM709 327v-57h-585v57h585zM417 178q23 0 39.5 -16.5t16.5 -39.5t-16 -39.5t-40 -16.5q-23 0 -39.5 16.5t-16.5 39.5q0 24 16.5 40t39.5 16z" />
    <glyph glyph-name="oslash" unicode="&#xf8;" horiz-adv-x="569" 
d="M150 128l231 229q-36 34 -97 34q-68 0 -114.5 -48.5t-46.5 -123.5q0 -51 27 -91zM416 321l-232 -231q35 -38 100 -38q68 0 116 50t48 124q0 52 -32 95zM37 16l57 56q-52 61 -52 143q0 108 69 177.5t174 69.5q85 0 149 -51l58 57l36 -36l-57 -57q57 -57 57 -149
q0 -104 -71 -174.5t-174 -70.5q-94 0 -154 55l-59 -59z" />
    <glyph glyph-name="ugrave" unicode="&#xf9;" horiz-adv-x="547" 
d="M150 447v-220q0 -92 27 -132.5t98 -40.5t97.5 40.5t26.5 132.5v220h78v-261q0 -101 -51.5 -153t-152.5 -52q-99 0 -151 52t-52 153v261h80zM344 517h-59l-139 170h98z" />
    <glyph glyph-name="uacute" unicode="&#xfa;" horiz-adv-x="547" 
d="M150 447v-220q0 -92 27 -132.5t98 -40.5t97.5 40.5t26.5 132.5v220h78v-261q0 -101 -51.5 -153t-152.5 -52q-99 0 -151 52t-52 153v261h80zM204 517l100 170h98l-139 -170h-59z" />
    <glyph glyph-name="ucircumflex" unicode="&#xfb;" horiz-adv-x="547" 
d="M150 447v-220q0 -92 27 -132.5t98 -40.5t97.5 40.5t26.5 132.5v220h78v-261q0 -101 -51.5 -153t-152.5 -52q-99 0 -151 52t-52 153v261h80zM130 517l96 170h96l96 -170h-60l-84 112l-85 -112h-59z" />
    <glyph glyph-name="udieresis" unicode="&#xfc;" horiz-adv-x="547" 
d="M150 447v-220q0 -92 27 -132.5t98 -40.5t97.5 40.5t26.5 132.5v220h78v-261q0 -101 -51.5 -153t-152.5 -52q-99 0 -151 52t-52 153v261h80zM130 597q0 22 17 38.5t39 16.5t38 -16t16 -39q0 -24 -15 -39.5t-39 -15.5t-40 15.5t-16 39.5zM308 597q0 22 16.5 38.5t38.5 16.5
q23 0 39 -16t16 -39q0 -24 -15.5 -39.5t-39.5 -15.5q-23 0 -39 15.5t-16 39.5z" />
    <glyph glyph-name="yacute" unicode="&#xfd;" horiz-adv-x="440" 
d="M60 -218l121 262l-175 403h88l130 -321l138 321h84l-300 -665h-86zM150 517l100 170h98l-139 -170h-59z" />
    <glyph glyph-name="thorn" unicode="&#xfe;" horiz-adv-x="574" 
d="M154 81v-299h-76v975h76v-394q19 47 61.5 73.5t98.5 26.5q96 0 155 -66t59 -175q0 -111 -58 -176t-153 -65q-111 0 -163 100zM152 228q0 -80 41 -126t110 -46q67 0 105.5 41.5t38.5 115.5q0 83 -39 129.5t-106 46.5q-68 0 -109 -43.5t-41 -117.5z" />
    <glyph glyph-name="ydieresis" unicode="&#xff;" horiz-adv-x="440" 
d="M60 -218l121 262l-175 403h88l130 -321l138 321h84l-300 -665h-86zM76 597q0 22 17 38.5t39 16.5t38 -16t16 -39q0 -24 -15 -39.5t-39 -15.5t-40 15.5t-16 39.5zM254 597q0 22 16.5 38.5t38.5 16.5q23 0 39 -16t16 -39q0 -24 -15.5 -39.5t-39.5 -15.5q-23 0 -39 15.5
t-16 39.5z" />
    <glyph glyph-name="dotlessi" unicode="&#x131;" horiz-adv-x="242" 
d="M82 0v447h77v-447h-77z" />
    <glyph glyph-name="Lslash" unicode="&#x141;" horiz-adv-x="461" 
d="M90 0v299l-83 -58l-43 59l126 88v327h86v-278l122 86l43 -60l-165 -116v-266h270v-81h-356z" />
    <glyph glyph-name="lslash" unicode="&#x142;" horiz-adv-x="256" 
d="M89 0v290l-66 -47l-35 51l101 72v391h78v-341l66 47l35 -51l-101 -72v-340h-78z" />
    <glyph glyph-name="OE" unicode="&#x152;" horiz-adv-x="1153" 
d="M1100 715v-78h-292v-205h292v-79h-292v-274h292v-79h-373v126q-110 -143 -284 -143q-115 0 -199 50q-92 54 -141.5 139t-49.5 186q0 154 113 265q112 109 278 109q172 0 283 -142v125h373zM143 358q0 -121 87 -208q84 -84 205 -84q122 0 207 85t85 207q0 120 -86 206
t-206 86q-121 0 -206 -85q-86 -86 -86 -207z" />
    <glyph glyph-name="oe" unicode="&#x153;" horiz-adv-x="917" 
d="M123 222q0 -71 47.5 -120t114.5 -49t114 49t47 120t-47 120t-114 49q-68 0 -115 -49t-47 -120zM481 80q-26 -45 -79.5 -72t-116.5 -27q-65 0 -122 33q-58 34 -89.5 88.5t-31.5 119.5q0 102 71 171.5t178 69.5q118 0 190 -98q57 99 182 99q100 0 158 -63.5t58 -173.5v-15
h-353v-7q0 -72 41.5 -116t106.5 -44q89 0 144 97l59 -39q-68 -122 -207 -122q-132 0 -189 99zM797 274q-4 59 -39.5 91t-96.5 32q-55 0 -92 -33t-43 -90h271z" />
    <glyph glyph-name="Scaron" unicode="&#x160;" horiz-adv-x="514" 
d="M346 397q141 -60 141 -196q0 -98 -63 -158.5t-166 -60.5q-85 0 -142 43t-77 123l77 38q32 -132 142 -132q64 0 103.5 37t39.5 96q0 95 -111 143l-87 37q-141 59 -141 189q0 76 56.5 126t144.5 50q132 0 185 -108l-70 -45q-47 82 -121 82q-48 0 -78.5 -29t-30.5 -75
q0 -74 96 -115zM113 956h59l85 -111l84 111h60l-96 -170h-96z" />
    <glyph glyph-name="scaron" unicode="&#x161;" horiz-adv-x="407" 
d="M31 75l65 44q37 -71 114 -71q38 0 61 18.5t23 48.5q0 25 -16.5 40.5t-53.5 27.5q-103 36 -130 54q-46 32 -46 91t43.5 97t114.5 38q58 0 99.5 -23t59.5 -66l-62 -38q-28 64 -102 64q-34 0 -55 -19t-21 -48q0 -9 2 -16t5 -12.5t10 -10.5t12 -8t17 -7.5t19.5 -7t24 -7.5
t25.5 -8q69 -22 99.5 -51.5t30.5 -81.5q0 -63 -44.5 -102.5t-118.5 -39.5q-124 0 -176 94zM60 687h59l85 -111l84 111h60l-96 -170h-96z" />
    <glyph glyph-name="Ydieresis" unicode="&#x178;" horiz-adv-x="572" 
d="M243 0v327l-242 388h98l187 -310l186 310h98l-242 -388v-327h-85zM142 866q0 22 17 38.5t39 16.5t38 -16t16 -39q0 -24 -15 -39.5t-39 -15.5t-40 15.5t-16 39.5zM320 866q0 22 16.5 38.5t38.5 16.5q23 0 39 -16.5t16 -38.5q0 -24 -15.5 -39.5t-39.5 -15.5q-23 0 -39 15.5
t-16 39.5z" />
    <glyph glyph-name="Zcaron" unicode="&#x17d;" horiz-adv-x="566" 
d="M-5 0l402 637h-326v78h470l-398 -634h382v-81h-530zM139 956h59l85 -111l84 111h60l-96 -170h-96z" />
    <glyph glyph-name="zcaron" unicode="&#x17e;" horiz-adv-x="431" 
d="M15 0l256 380h-240v67h375l-256 -380h254v-67h-389zM72 687h59l85 -111l84 111h60l-96 -170h-96z" />
    <glyph glyph-name="florin" unicode="&#x192;" horiz-adv-x="590" 
d="M331 393l-45 -381q-15 -126 -45 -179t-105 -53q-25 0 -54 7l16 67q20 -5 31 -5q38 0 50.5 32t23.5 125v3l44 384h-79l7 65h78l10 80q12 96 43.5 140t93.5 44q38 0 76 -16l-8 -69q-37 15 -54 15q-32 0 -46.5 -28.5t-21.5 -95.5l-8 -70h94l-7 -65h-94z" />
    <glyph glyph-name="circumflex" unicode="&#x2c6;" 
d="M106 517l96 170h96l96 -170h-60l-84 112l-85 -112h-59z" />
    <glyph glyph-name="caron" unicode="&#x2c7;" 
d="M106 687h59l85 -111l84 111h60l-96 -170h-96z" />
    <glyph glyph-name="breve" unicode="&#x2d8;" 
d="M108 646h53q10 -60 89 -60q80 0 89 60h53q-7 -65 -41 -95t-101 -30t-101 30t-41 95z" />
    <glyph glyph-name="dotaccent" unicode="&#x2d9;" 
d="M193 597q0 23 17 40.5t40 17.5t40.5 -17.5t17.5 -40.5q0 -25 -16.5 -41.5t-41.5 -16.5t-41 16.5t-16 41.5z" />
    <glyph glyph-name="ring" unicode="&#x2da;" 
d="M127 631q0 52 35.5 88t87.5 36t88 -36t36 -88t-36 -87.5t-88 -35.5t-87.5 35.5t-35.5 87.5zM184 631q0 -28 19 -47t47 -19q27 0 46.5 19t19.5 47q0 27 -19.5 46.5t-46.5 19.5q-28 0 -47 -19t-19 -47z" />
    <glyph glyph-name="ogonek" unicode="&#x2db;" 
d="M288 0q-67 -59 -67 -108q0 -21 10.5 -29.5t36.5 -8.5h41v-70h-42q-110 0 -110 82q0 61 91 134h40z" />
    <glyph glyph-name="tilde" unicode="&#x2dc;" 
d="M393 653q-20 -102 -96 -102q-14 0 -32 5l-47 13q-13 4 -24 4q-30 0 -44 -33h-43q9 48 33.5 74t60.5 26q17 0 29 -4l48 -14q18 -5 26 -5q32 0 46 36h43z" />
    <glyph glyph-name="hungarumlaut" unicode="&#x2dd;" 
d="M152 517l67 170h87l-107 -170h-47zM278 517l81 170h86l-120 -170h-47z" />
    <glyph glyph-name="endash" unicode="&#x2013;" 
d="M0 251h500v-57h-500v57z" />
    <glyph glyph-name="emdash" unicode="&#x2014;" horiz-adv-x="1000" 
d="M0 194v57h1000v-57h-1000z" />
    <glyph glyph-name="quoteleft" unicode="&#x2018;" horiz-adv-x="295" 
d="M235 709l-92 -266l-84 30l121 258z" />
    <glyph glyph-name="quoteright" unicode="&#x2019;" horiz-adv-x="295" 
d="M59 466l93 265l83 -29l-120 -259z" />
    <glyph glyph-name="quotesinglbase" unicode="&#x201a;" horiz-adv-x="295" 
d="M59 -142l93 266l83 -29l-120 -259z" />
    <glyph glyph-name="quotedblleft" unicode="&#x201c;" horiz-adv-x="435" 
d="M217 709l-93 -266l-83 30l121 258zM394 709l-93 -266l-83 30l120 258z" />
    <glyph glyph-name="quotedblright" unicode="&#x201d;" horiz-adv-x="435" 
d="M42 466l93 265l83 -29l-120 -259zM217 466l92 265l84 -29l-121 -259z" />
    <glyph glyph-name="quotedblbase" unicode="&#x201e;" horiz-adv-x="435" 
d="M42 -142l93 266l83 -29l-120 -259zM217 -142l92 266l84 -29l-121 -259z" />
    <glyph glyph-name="dagger" unicode="&#x2020;" horiz-adv-x="525" 
d="M222 -218v589h-178v70h178v274h81v-274h178v-70h-178v-589h-81z" />
    <glyph glyph-name="daggerdbl" unicode="&#x2021;" horiz-adv-x="525" 
d="M221 -218v246h-177v73h177v334h-177v73h177v207h83v-207h177v-73h-177v-334h177v-73h-177v-246h-83z" />
    <glyph glyph-name="bullet" unicode="&#x2022;" horiz-adv-x="590" 
d="M150 372q0 60 42.5 102t102.5 42q59 0 101.5 -42t42.5 -102q0 -59 -42.5 -102t-102.5 -43t-102 42.5t-42 102.5z" />
    <glyph glyph-name="ellipsis" unicode="&#x2026;" horiz-adv-x="1000" 
d="M108 48q0 24 17 41t41 17q25 0 42 -17t17 -41t-17 -40.5t-42 -16.5t-41.5 16.5t-16.5 40.5zM441 48q0 24 17 41t41 17q25 0 42 -17t17 -41t-17 -40.5t-42 -16.5t-41.5 16.5t-16.5 40.5zM775 48q0 24 17 41t41 17q25 0 42 -17t17 -41t-17 -40.5t-42 -16.5t-41.5 16.5
t-16.5 40.5z" />
    <glyph glyph-name="perthousand" unicode="&#x2030;" horiz-adv-x="1086" 
d="M133 -19l411 741h60l-410 -741h-61zM322 537q0 -88 -39 -136t-108 -48t-108 48t-39 136t39 136.5t108 48.5t108 -48.5t39 -136.5zM175 402q36 0 55.5 35t19.5 100q0 136 -75 136q-36 0 -55.5 -35.5t-19.5 -100.5t19.5 -100t55.5 -35zM570 31q36 0 55.5 35t19.5 100
q0 135 -75 135q-36 0 -55.5 -35t-19.5 -100t19.5 -100t55.5 -35zM716 166q0 -88 -38.5 -136.5t-107.5 -48.5t-108 48.5t-39 136.5t39 136.5t108 48.5t107.5 -48.5t38.5 -136.5zM1062 166q0 -88 -39 -136.5t-108 -48.5t-107.5 48.5t-38.5 136.5t38.5 136.5t107.5 48.5
t108 -48.5t39 -136.5zM915 31q36 0 55.5 35t19.5 100q0 135 -75 135q-35 0 -54.5 -34.5t-19.5 -100.5t19.5 -100.5t54.5 -34.5z" />
    <glyph glyph-name="guilsinglleft" unicode="&#x2039;" horiz-adv-x="237" 
d="M156 24l-123 197l119 199l51 -33l-100 -166l101 -162z" />
    <glyph glyph-name="guilsinglright" unicode="&#x203a;" horiz-adv-x="237" 
d="M81 24l-48 35l101 162l-100 166l51 33l119 -199z" />
    <glyph glyph-name="fraction" unicode="&#x2044;" horiz-adv-x="167" 
d="M-167 -19l439 741h61l-439 -741h-61z" />
    <glyph glyph-name="trademark" unicode="&#x2122;" horiz-adv-x="833" 
d="M339 711v-33h-84v-228h-46v228h-85v33h215zM463 711l78 -198l73 198h64v-261h-40v224l-84 -224h-26l-88 224v-224h-40v261h63z" />
    <glyph glyph-name="minus" unicode="&#x2212;" horiz-adv-x="833" 
d="M709 327v-58h-585v58h585z" />
    <glyph glyph-name="fi" unicode="&#xfb01;" horiz-adv-x="525" 
d="M98 0v384h-86v63h86v129q0 106 26 148t103 42q36 0 66 -10v-79q-29 16 -60 16q-40 0 -49.5 -27t-9.5 -100v-119h119v-63h-117v-384h-78zM366 0v447h76v-447h-76zM348 662q0 23 16.5 39.5t39.5 16.5t39.5 -17t16.5 -40t-16.5 -39t-39.5 -16t-39.5 16t-16.5 40z" />
    <glyph glyph-name="fl" unicode="&#xfb02;" horiz-adv-x="525" 
d="M98 0v384h-86v63h86v129q0 106 26 148t103 42q36 0 66 -10v-79q-29 16 -60 16q-40 0 -49.5 -27t-9.5 -100v-119h119v-63h-117v-384h-78zM366 757h77v-757h-77v757z" />
    <hkern u1="&#x2d;" u2="&#x153;" k="-18" />
    <hkern u1="&#x2d;" u2="&#x152;" k="-37" />
    <hkern u1="&#x2d;" u2="&#xf8;" k="-18" />
    <hkern u1="&#x2d;" u2="&#xd8;" k="-37" />
    <hkern u1="&#x2d;" u2="&#xc6;" k="-28" />
    <hkern u1="&#x2d;" u2="x" k="19" />
    <hkern u1="&#x2d;" u2="s" k="-18" />
    <hkern u1="&#x2d;" u2="q" k="-18" />
    <hkern u1="&#x2d;" u2="o" k="-18" />
    <hkern u1="&#x2d;" u2="e" k="-18" />
    <hkern u1="&#x2d;" u2="d" k="-18" />
    <hkern u1="&#x2d;" u2="c" k="-18" />
    <hkern u1="&#x2d;" u2="Y" k="79" />
    <hkern u1="&#x2d;" u2="X" k="37" />
    <hkern u1="&#x2d;" u2="W" k="56" />
    <hkern u1="&#x2d;" u2="V" k="60" />
    <hkern u1="&#x2d;" u2="T" k="93" />
    <hkern u1="&#x2d;" u2="S" k="-18" />
    <hkern u1="&#x2d;" u2="Q" k="-37" />
    <hkern u1="&#x2d;" u2="O" k="-37" />
    <hkern u1="&#x2d;" u2="J" k="-55" />
    <hkern u1="&#x2d;" u2="G" k="-37" />
    <hkern u1="&#x2d;" u2="C" k="-18" />
    <hkern u1="A" u2="&#x201e;" k="-18" />
    <hkern u1="A" u2="&#x201d;" k="121" />
    <hkern u1="A" u2="&#x201c;" k="130" />
    <hkern u1="A" u2="&#x201a;" k="-18" />
    <hkern u1="A" u2="&#x2019;" k="121" />
    <hkern u1="A" u2="&#x2018;" k="130" />
    <hkern u1="A" u2="&#x152;" k="19" />
    <hkern u1="A" u2="&#xd8;" k="19" />
    <hkern u1="A" u2="Y" k="56" />
    <hkern u1="A" u2="W" k="19" />
    <hkern u1="A" u2="V" k="19" />
    <hkern u1="A" u2="U" k="19" />
    <hkern u1="A" u2="T" k="56" />
    <hkern u1="A" u2="Q" k="19" />
    <hkern u1="A" u2="O" k="19" />
    <hkern u1="A" u2="G" k="19" />
    <hkern u1="A" u2="C" k="19" />
    <hkern u1="A" u2="&#x3b;" k="-18" />
    <hkern u1="A" u2="&#x3a;" k="-18" />
    <hkern u1="A" u2="&#x2e;" k="-32" />
    <hkern u1="A" u2="&#x2c;" k="-32" />
    <hkern u1="B" u2="&#x201e;" k="19" />
    <hkern u1="B" u2="&#x201d;" k="19" />
    <hkern u1="B" u2="&#x201a;" k="19" />
    <hkern u1="B" u2="&#x2019;" k="19" />
    <hkern u1="B" u2="Y" k="19" />
    <hkern u1="B" u2="W" k="19" />
    <hkern u1="B" u2="V" k="19" />
    <hkern u1="B" u2="&#x2e;" k="28" />
    <hkern u1="B" u2="&#x2d;" k="-28" />
    <hkern u1="B" u2="&#x2c;" k="28" />
    <hkern u1="C" u2="&#x201d;" k="-28" />
    <hkern u1="C" u2="&#x2019;" k="-28" />
    <hkern u1="C" u2="&#x3b;" k="-18" />
    <hkern u1="C" u2="&#x3a;" k="-18" />
    <hkern u1="C" u2="&#x2d;" k="-23" />
    <hkern u1="D" u2="&#x201e;" k="93" />
    <hkern u1="D" u2="&#x201d;" k="19" />
    <hkern u1="D" u2="&#x201c;" k="19" />
    <hkern u1="D" u2="&#x201a;" k="93" />
    <hkern u1="D" u2="&#x2019;" k="19" />
    <hkern u1="D" u2="&#x2018;" k="19" />
    <hkern u1="D" u2="&#xc5;" k="19" />
    <hkern u1="D" u2="Y" k="19" />
    <hkern u1="D" u2="W" k="19" />
    <hkern u1="D" u2="V" k="19" />
    <hkern u1="D" u2="A" k="19" />
    <hkern u1="D" u2="&#x2e;" k="60" />
    <hkern u1="D" u2="&#x2d;" k="-32" />
    <hkern u1="D" u2="&#x2c;" k="60" />
    <hkern u1="E" u2="&#x3b;" k="-18" />
    <hkern u1="E" u2="&#x3a;" k="-18" />
    <hkern u1="E" u2="&#x2e;" k="-18" />
    <hkern u1="E" u2="&#x2d;" k="-18" />
    <hkern u1="E" u2="&#x2c;" k="-18" />
    <hkern u1="F" u2="&#x203a;" k="-18" />
    <hkern u1="F" u2="&#x201e;" k="204" />
    <hkern u1="F" u2="&#x201d;" k="-18" />
    <hkern u1="F" u2="&#x201a;" k="204" />
    <hkern u1="F" u2="&#x2019;" k="-18" />
    <hkern u1="F" u2="&#x153;" k="37" />
    <hkern u1="F" u2="&#xf8;" k="37" />
    <hkern u1="F" u2="&#xe6;" k="19" />
    <hkern u1="F" u2="&#xc5;" k="56" />
    <hkern u1="F" u2="&#xbb;" k="-18" />
    <hkern u1="F" u2="&#xab;" k="37" />
    <hkern u1="F" u2="u" k="19" />
    <hkern u1="F" u2="r" k="19" />
    <hkern u1="F" u2="o" k="37" />
    <hkern u1="F" u2="i" k="19" />
    <hkern u1="F" u2="e" k="19" />
    <hkern u1="F" u2="a" k="19" />
    <hkern u1="F" u2="A" k="56" />
    <hkern u1="F" u2="&#x3b;" k="42" />
    <hkern u1="F" u2="&#x3a;" k="42" />
    <hkern u1="F" u2="&#x2e;" k="199" />
    <hkern u1="F" u2="&#x2d;" k="51" />
    <hkern u1="F" u2="&#x2c;" k="199" />
    <hkern u1="G" u2="&#x201d;" k="46" />
    <hkern u1="G" u2="&#x2019;" k="46" />
    <hkern u1="G" u2="Y" k="19" />
    <hkern u1="G" u2="T" k="19" />
    <hkern u1="G" u2="&#x3b;" k="-18" />
    <hkern u1="G" u2="&#x3a;" k="-18" />
    <hkern u1="G" u2="&#x2e;" k="28" />
    <hkern u1="G" u2="&#x2d;" k="-23" />
    <hkern u1="G" u2="&#x2c;" k="28" />
    <hkern u1="H" u2="&#x2e;" k="19" />
    <hkern u1="H" u2="&#x2c;" k="19" />
    <hkern u1="J" u2="&#x201e;" k="56" />
    <hkern u1="J" u2="&#x201d;" k="19" />
    <hkern u1="J" u2="&#x201a;" k="56" />
    <hkern u1="J" u2="&#x2019;" k="19" />
    <hkern u1="J" u2="&#x3b;" k="32" />
    <hkern u1="J" u2="&#x3a;" k="32" />
    <hkern u1="J" u2="&#x2e;" k="51" />
    <hkern u1="J" u2="&#x2c;" k="51" />
    <hkern u1="K" u2="&#x201e;" k="-32" />
    <hkern u1="K" u2="&#x201d;" k="23" />
    <hkern u1="K" u2="&#x201c;" k="37" />
    <hkern u1="K" u2="&#x201a;" k="-32" />
    <hkern u1="K" u2="&#x2019;" k="23" />
    <hkern u1="K" u2="&#x2018;" k="37" />
    <hkern u1="K" u2="&#x153;" k="19" />
    <hkern u1="K" u2="&#x152;" k="37" />
    <hkern u1="K" u2="&#xf8;" k="19" />
    <hkern u1="K" u2="&#xe6;" k="19" />
    <hkern u1="K" u2="&#xd8;" k="37" />
    <hkern u1="K" u2="&#xab;" k="28" />
    <hkern u1="K" u2="y" k="37" />
    <hkern u1="K" u2="u" k="19" />
    <hkern u1="K" u2="o" k="19" />
    <hkern u1="K" u2="e" k="19" />
    <hkern u1="K" u2="a" k="19" />
    <hkern u1="K" u2="Y" k="37" />
    <hkern u1="K" u2="W" k="37" />
    <hkern u1="K" u2="U" k="19" />
    <hkern u1="K" u2="T" k="37" />
    <hkern u1="K" u2="O" k="37" />
    <hkern u1="K" u2="C" k="37" />
    <hkern u1="K" u2="&#x3b;" k="-18" />
    <hkern u1="K" u2="&#x3a;" k="-18" />
    <hkern u1="K" u2="&#x2e;" k="-18" />
    <hkern u1="K" u2="&#x2d;" k="32" />
    <hkern u1="K" u2="&#x2c;" k="-18" />
    <hkern u1="L" u2="&#x201d;" k="134" />
    <hkern u1="L" u2="&#x201c;" k="167" />
    <hkern u1="L" u2="&#x2019;" k="134" />
    <hkern u1="L" u2="&#x2018;" k="167" />
    <hkern u1="L" u2="&#x153;" k="19" />
    <hkern u1="L" u2="&#x152;" k="37" />
    <hkern u1="L" u2="&#xf8;" k="19" />
    <hkern u1="L" u2="&#xe6;" k="19" />
    <hkern u1="L" u2="&#xd8;" k="37" />
    <hkern u1="L" u2="y" k="37" />
    <hkern u1="L" u2="u" k="19" />
    <hkern u1="L" u2="o" k="19" />
    <hkern u1="L" u2="e" k="19" />
    <hkern u1="L" u2="a" k="19" />
    <hkern u1="L" u2="Y" k="74" />
    <hkern u1="L" u2="W" k="56" />
    <hkern u1="L" u2="V" k="56" />
    <hkern u1="L" u2="U" k="19" />
    <hkern u1="L" u2="T" k="56" />
    <hkern u1="L" u2="O" k="37" />
    <hkern u1="L" u2="&#x3b;" k="-18" />
    <hkern u1="L" u2="&#x3a;" k="-18" />
    <hkern u1="L" u2="&#x2e;" k="-18" />
    <hkern u1="L" u2="&#x2d;" k="19" />
    <hkern u1="L" u2="&#x2c;" k="-18" />
    <hkern u1="M" u2="&#x201c;" k="19" />
    <hkern u1="M" u2="&#x2018;" k="19" />
    <hkern u1="N" u2="&#x201e;" k="37" />
    <hkern u1="N" u2="&#x201c;" k="19" />
    <hkern u1="N" u2="&#x201a;" k="37" />
    <hkern u1="N" u2="&#x2018;" k="19" />
    <hkern u1="N" u2="&#x3b;" k="28" />
    <hkern u1="N" u2="&#x3a;" k="28" />
    <hkern u1="N" u2="&#x2e;" k="46" />
    <hkern u1="N" u2="&#x2c;" k="46" />
    <hkern u1="O" u2="&#x201e;" k="56" />
    <hkern u1="O" u2="&#x201d;" k="19" />
    <hkern u1="O" u2="&#x201a;" k="56" />
    <hkern u1="O" u2="&#x2019;" k="19" />
    <hkern u1="O" u2="&#xc5;" k="19" />
    <hkern u1="O" u2="Y" k="37" />
    <hkern u1="O" u2="X" k="19" />
    <hkern u1="O" u2="V" k="19" />
    <hkern u1="O" u2="T" k="56" />
    <hkern u1="O" u2="A" k="19" />
    <hkern u1="O" u2="&#x3b;" k="-18" />
    <hkern u1="O" u2="&#x3a;" k="-18" />
    <hkern u1="O" u2="&#x2e;" k="42" />
    <hkern u1="O" u2="&#x2d;" k="-28" />
    <hkern u1="O" u2="&#x2c;" k="42" />
    <hkern u1="P" u2="&#x203a;" k="19" />
    <hkern u1="P" u2="&#x201e;" k="241" />
    <hkern u1="P" u2="&#x201d;" k="-23" />
    <hkern u1="P" u2="&#x201c;" k="-18" />
    <hkern u1="P" u2="&#x201a;" k="241" />
    <hkern u1="P" u2="&#x2019;" k="-23" />
    <hkern u1="P" u2="&#x2018;" k="-18" />
    <hkern u1="P" u2="&#x153;" k="56" />
    <hkern u1="P" u2="&#xf8;" k="56" />
    <hkern u1="P" u2="&#xe6;" k="56" />
    <hkern u1="P" u2="&#xc5;" k="56" />
    <hkern u1="P" u2="&#xbb;" k="19" />
    <hkern u1="P" u2="&#xab;" k="56" />
    <hkern u1="P" u2="s" k="19" />
    <hkern u1="P" u2="r" k="19" />
    <hkern u1="P" u2="o" k="56" />
    <hkern u1="P" u2="n" k="19" />
    <hkern u1="P" u2="e" k="56" />
    <hkern u1="P" u2="a" k="56" />
    <hkern u1="P" u2="A" k="56" />
    <hkern u1="P" u2="&#x3b;" k="46" />
    <hkern u1="P" u2="&#x3a;" k="46" />
    <hkern u1="P" u2="&#x2e;" k="241" />
    <hkern u1="P" u2="&#x2d;" k="97" />
    <hkern u1="P" u2="&#x2c;" k="241" />
    <hkern u1="Q" u2="&#x3b;" k="-18" />
    <hkern u1="Q" u2="&#x3a;" k="-18" />
    <hkern u1="Q" u2="&#x2d;" k="-28" />
    <hkern u1="R" u2="&#x201d;" k="19" />
    <hkern u1="R" u2="&#x201c;" k="19" />
    <hkern u1="R" u2="&#x2019;" k="19" />
    <hkern u1="R" u2="&#x2018;" k="19" />
    <hkern u1="R" u2="Y" k="19" />
    <hkern u1="R" u2="&#x2d;" k="28" />
    <hkern u1="S" u2="&#x3b;" k="-18" />
    <hkern u1="S" u2="&#x3a;" k="-18" />
    <hkern u1="S" u2="&#x2e;" k="19" />
    <hkern u1="S" u2="&#x2d;" k="-32" />
    <hkern u1="S" u2="&#x2c;" k="19" />
    <hkern u1="T" u2="&#x203a;" k="56" />
    <hkern u1="T" u2="&#x201e;" k="111" />
    <hkern u1="T" u2="&#x201a;" k="111" />
    <hkern u1="T" u2="&#x153;" k="121" />
    <hkern u1="T" u2="&#x152;" k="56" />
    <hkern u1="T" u2="&#xf8;" k="121" />
    <hkern u1="T" u2="&#xe6;" k="121" />
    <hkern u1="T" u2="&#xd8;" k="56" />
    <hkern u1="T" u2="&#xc5;" k="74" />
    <hkern u1="T" u2="&#xbb;" k="56" />
    <hkern u1="T" u2="&#xab;" k="93" />
    <hkern u1="T" u2="y" k="121" />
    <hkern u1="T" u2="w" k="121" />
    <hkern u1="T" u2="u" k="102" />
    <hkern u1="T" u2="s" k="121" />
    <hkern u1="T" u2="r" k="102" />
    <hkern u1="T" u2="o" k="121" />
    <hkern u1="T" u2="e" k="121" />
    <hkern u1="T" u2="c" k="121" />
    <hkern u1="T" u2="a" k="121" />
    <hkern u1="T" u2="O" k="56" />
    <hkern u1="T" u2="C" k="37" />
    <hkern u1="T" u2="A" k="74" />
    <hkern u1="T" u2="&#x3b;" k="65" />
    <hkern u1="T" u2="&#x3a;" k="65" />
    <hkern u1="T" u2="&#x2e;" k="130" />
    <hkern u1="T" u2="&#x2d;" k="93" />
    <hkern u1="T" u2="&#x2c;" k="130" />
    <hkern u1="U" u2="&#x201e;" k="74" />
    <hkern u1="U" u2="&#x201a;" k="74" />
    <hkern u1="U" u2="&#xc5;" k="19" />
    <hkern u1="U" u2="&#xab;" k="37" />
    <hkern u1="U" u2="A" k="19" />
    <hkern u1="U" u2="&#x3b;" k="32" />
    <hkern u1="U" u2="&#x3a;" k="32" />
    <hkern u1="U" u2="&#x2e;" k="60" />
    <hkern u1="U" u2="&#x2d;" k="28" />
    <hkern u1="U" u2="&#x2c;" k="60" />
    <hkern u1="V" u2="&#x203a;" k="56" />
    <hkern u1="V" u2="&#x201e;" k="167" />
    <hkern u1="V" u2="&#x201d;" k="-28" />
    <hkern u1="V" u2="&#x201a;" k="167" />
    <hkern u1="V" u2="&#x2019;" k="-28" />
    <hkern u1="V" u2="&#x153;" k="56" />
    <hkern u1="V" u2="&#x152;" k="19" />
    <hkern u1="V" u2="&#xf8;" k="56" />
    <hkern u1="V" u2="&#xe6;" k="56" />
    <hkern u1="V" u2="&#xd8;" k="19" />
    <hkern u1="V" u2="&#xc5;" k="19" />
    <hkern u1="V" u2="&#xbb;" k="56" />
    <hkern u1="V" u2="&#xab;" k="111" />
    <hkern u1="V" u2="y" k="28" />
    <hkern u1="V" u2="u" k="56" />
    <hkern u1="V" u2="o" k="56" />
    <hkern u1="V" u2="e" k="56" />
    <hkern u1="V" u2="a" k="56" />
    <hkern u1="V" u2="O" k="19" />
    <hkern u1="V" u2="A" k="19" />
    <hkern u1="V" u2="&#x3b;" k="70" />
    <hkern u1="V" u2="&#x3a;" k="70" />
    <hkern u1="V" u2="&#x2e;" k="167" />
    <hkern u1="V" u2="&#x2d;" k="83" />
    <hkern u1="V" u2="&#x2c;" k="167" />
    <hkern u1="W" u2="&#x203a;" k="56" />
    <hkern u1="W" u2="&#x201e;" k="167" />
    <hkern u1="W" u2="&#x201d;" k="-18" />
    <hkern u1="W" u2="&#x201a;" k="167" />
    <hkern u1="W" u2="&#x2019;" k="-18" />
    <hkern u1="W" u2="&#x153;" k="56" />
    <hkern u1="W" u2="&#xf8;" k="56" />
    <hkern u1="W" u2="&#xe6;" k="56" />
    <hkern u1="W" u2="&#xc5;" k="19" />
    <hkern u1="W" u2="&#xbb;" k="56" />
    <hkern u1="W" u2="&#xab;" k="93" />
    <hkern u1="W" u2="y" k="19" />
    <hkern u1="W" u2="u" k="37" />
    <hkern u1="W" u2="r" k="37" />
    <hkern u1="W" u2="o" k="56" />
    <hkern u1="W" u2="e" k="56" />
    <hkern u1="W" u2="a" k="56" />
    <hkern u1="W" u2="A" k="19" />
    <hkern u1="W" u2="&#x3b;" k="60" />
    <hkern u1="W" u2="&#x3a;" k="60" />
    <hkern u1="W" u2="&#x2e;" k="125" />
    <hkern u1="W" u2="&#x2d;" k="60" />
    <hkern u1="W" u2="&#x2c;" k="125" />
    <hkern u1="X" u2="&#x201e;" k="-55" />
    <hkern u1="X" u2="&#x201c;" k="37" />
    <hkern u1="X" u2="&#x201a;" k="-55" />
    <hkern u1="X" u2="&#x2018;" k="37" />
    <hkern u1="X" u2="&#x152;" k="19" />
    <hkern u1="X" u2="&#xd8;" k="19" />
    <hkern u1="X" u2="&#xab;" k="56" />
    <hkern u1="X" u2="O" k="19" />
    <hkern u1="X" u2="C" k="19" />
    <hkern u1="X" u2="&#x3b;" k="19" />
    <hkern u1="X" u2="&#x3a;" k="19" />
    <hkern u1="X" u2="&#x2e;" k="-18" />
    <hkern u1="X" u2="&#x2d;" k="51" />
    <hkern u1="X" u2="&#x2c;" k="-18" />
    <hkern u1="Y" u2="&#x203a;" k="74" />
    <hkern u1="Y" u2="&#x201e;" k="130" />
    <hkern u1="Y" u2="&#x201a;" k="130" />
    <hkern u1="Y" u2="&#x153;" k="111" />
    <hkern u1="Y" u2="&#x152;" k="37" />
    <hkern u1="Y" u2="&#xf8;" k="111" />
    <hkern u1="Y" u2="&#xe6;" k="111" />
    <hkern u1="Y" u2="&#xd8;" k="37" />
    <hkern u1="Y" u2="&#xc5;" k="56" />
    <hkern u1="Y" u2="&#xbb;" k="74" />
    <hkern u1="Y" u2="&#xab;" k="111" />
    <hkern u1="Y" u2="u" k="107" />
    <hkern u1="Y" u2="o" k="111" />
    <hkern u1="Y" u2="i" k="19" />
    <hkern u1="Y" u2="e" k="111" />
    <hkern u1="Y" u2="a" k="111" />
    <hkern u1="Y" u2="O" k="37" />
    <hkern u1="Y" u2="C" k="19" />
    <hkern u1="Y" u2="A" k="56" />
    <hkern u1="Y" u2="&#x3b;" k="107" />
    <hkern u1="Y" u2="&#x3a;" k="107" />
    <hkern u1="Y" u2="&#x2e;" k="134" />
    <hkern u1="Y" u2="&#x2d;" k="121" />
    <hkern u1="Y" u2="&#x2c;" k="134" />
    <hkern u1="Z" u2="&#x201c;" k="19" />
    <hkern u1="Z" u2="&#x2018;" k="19" />
    <hkern u1="Z" u2="&#x3b;" k="-18" />
    <hkern u1="Z" u2="&#x3a;" k="-18" />
    <hkern u1="Z" u2="&#x2e;" k="-18" />
    <hkern u1="Z" u2="&#x2d;" k="19" />
    <hkern u1="Z" u2="&#x2c;" k="-18" />
    <hkern u1="a" u2="&#x201d;" k="37" />
    <hkern u1="a" u2="&#x201c;" k="56" />
    <hkern u1="a" u2="&#x2019;" k="37" />
    <hkern u1="a" u2="&#x2018;" k="56" />
    <hkern u1="b" u2="&#x201e;" k="19" />
    <hkern u1="b" u2="&#x201d;" k="37" />
    <hkern u1="b" u2="&#x201c;" k="56" />
    <hkern u1="b" u2="&#x201a;" k="19" />
    <hkern u1="b" u2="&#x2019;" k="37" />
    <hkern u1="b" u2="&#x2018;" k="56" />
    <hkern u1="b" u2="&#x2d;" k="-18" />
    <hkern u1="e" u2="&#x2d;" k="-18" />
    <hkern u1="f" u2="&#x201e;" k="56" />
    <hkern u1="f" u2="&#x201d;" k="-69" />
    <hkern u1="f" u2="&#x201c;" k="-88" />
    <hkern u1="f" u2="&#x201a;" k="56" />
    <hkern u1="f" u2="&#x2019;" k="-69" />
    <hkern u1="f" u2="&#x2018;" k="-88" />
    <hkern u1="f" u2="&#x2e;" k="37" />
    <hkern u1="f" u2="&#x2c;" k="37" />
    <hkern u1="g" u2="&#x2e;" k="19" />
    <hkern u1="g" u2="&#x2d;" k="19" />
    <hkern u1="g" u2="&#x2c;" k="19" />
    <hkern u1="h" u2="&#x201d;" k="56" />
    <hkern u1="h" u2="&#x201c;" k="56" />
    <hkern u1="h" u2="&#x2019;" k="56" />
    <hkern u1="h" u2="&#x2018;" k="56" />
    <hkern u1="i" u2="&#x201c;" k="19" />
    <hkern u1="i" u2="&#x2018;" k="19" />
    <hkern u1="j" u2="&#x201d;" k="19" />
    <hkern u1="j" u2="&#x2019;" k="19" />
    <hkern u1="k" u2="&#x201e;" k="-18" />
    <hkern u1="k" u2="&#x201d;" k="-37" />
    <hkern u1="k" u2="&#x201a;" k="-18" />
    <hkern u1="k" u2="&#x2019;" k="-37" />
    <hkern u1="k" u2="&#x2d;" k="42" />
    <hkern u1="m" u2="&#x201d;" k="56" />
    <hkern u1="m" u2="&#x201c;" k="56" />
    <hkern u1="m" u2="&#x2019;" k="56" />
    <hkern u1="m" u2="&#x2018;" k="56" />
    <hkern u1="n" u2="&#x201d;" k="56" />
    <hkern u1="n" u2="&#x201c;" k="56" />
    <hkern u1="n" u2="&#x2019;" k="56" />
    <hkern u1="n" u2="&#x2018;" k="56" />
    <hkern u1="o" u2="&#x201c;" k="37" />
    <hkern u1="o" u2="&#x2018;" k="37" />
    <hkern u1="o" u2="&#x2d;" k="-18" />
    <hkern u1="p" u2="&#x201e;" k="37" />
    <hkern u1="p" u2="&#x201d;" k="56" />
    <hkern u1="p" u2="&#x201c;" k="37" />
    <hkern u1="p" u2="&#x201a;" k="37" />
    <hkern u1="p" u2="&#x2019;" k="56" />
    <hkern u1="p" u2="&#x2018;" k="37" />
    <hkern u1="p" u2="&#x2d;" k="-18" />
    <hkern u1="q" u2="&#x201e;" k="-18" />
    <hkern u1="q" u2="&#x201a;" k="-18" />
    <hkern u1="r" u2="&#x201e;" k="97" />
    <hkern u1="r" u2="&#x201d;" k="-42" />
    <hkern u1="r" u2="&#x201a;" k="97" />
    <hkern u1="r" u2="&#x2019;" k="-42" />
    <hkern u1="r" u2="&#xab;" k="19" />
    <hkern u1="r" u2="&#x2e;" k="102" />
    <hkern u1="r" u2="&#x2d;" k="37" />
    <hkern u1="r" u2="&#x2c;" k="102" />
    <hkern u1="s" u2="&#x201c;" k="37" />
    <hkern u1="s" u2="&#x2018;" k="37" />
    <hkern u1="s" u2="&#x2d;" k="-18" />
    <hkern u1="t" u2="&#x201e;" k="19" />
    <hkern u1="t" u2="&#x201d;" k="-28" />
    <hkern u1="t" u2="&#x201c;" k="-18" />
    <hkern u1="t" u2="&#x201a;" k="19" />
    <hkern u1="t" u2="&#x2019;" k="-28" />
    <hkern u1="t" u2="&#x2018;" k="-18" />
    <hkern u1="t" u2="&#x2d;" k="23" />
    <hkern u1="u" u2="&#x201d;" k="37" />
    <hkern u1="u" u2="&#x2019;" k="37" />
    <hkern u1="v" u2="&#x201e;" k="116" />
    <hkern u1="v" u2="&#x201d;" k="-55" />
    <hkern u1="v" u2="&#x201c;" k="-46" />
    <hkern u1="v" u2="&#x201a;" k="116" />
    <hkern u1="v" u2="&#x2019;" k="-55" />
    <hkern u1="v" u2="&#x2018;" k="-46" />
    <hkern u1="v" u2="&#x2e;" k="79" />
    <hkern u1="v" u2="&#x2c;" k="79" />
    <hkern u1="w" u2="&#x201e;" k="79" />
    <hkern u1="w" u2="&#x201d;" k="-55" />
    <hkern u1="w" u2="&#x201c;" k="-28" />
    <hkern u1="w" u2="&#x201a;" k="79" />
    <hkern u1="w" u2="&#x2019;" k="-55" />
    <hkern u1="w" u2="&#x2018;" k="-28" />
    <hkern u1="w" u2="&#x2e;" k="74" />
    <hkern u1="w" u2="&#x2d;" k="-18" />
    <hkern u1="w" u2="&#x2c;" k="74" />
    <hkern u1="x" u2="&#x2d;" k="32" />
    <hkern u1="y" u2="&#x201e;" k="130" />
    <hkern u1="y" u2="&#x201d;" k="-55" />
    <hkern u1="y" u2="&#x201c;" k="-55" />
    <hkern u1="y" u2="&#x201a;" k="130" />
    <hkern u1="y" u2="&#x2019;" k="-55" />
    <hkern u1="y" u2="&#x2018;" k="-55" />
    <hkern u1="y" u2="&#x2e;" k="88" />
    <hkern u1="y" u2="&#x2d;" k="19" />
    <hkern u1="y" u2="&#x2c;" k="88" />
    <hkern u1="&#xab;" u2="&#xc6;" k="-74" />
    <hkern u1="&#xab;" u2="Y" k="74" />
    <hkern u1="&#xab;" u2="W" k="56" />
    <hkern u1="&#xab;" u2="V" k="56" />
    <hkern u1="&#xab;" u2="T" k="56" />
    <hkern u1="&#xab;" u2="J" k="-18" />
    <hkern u1="&#xbb;" u2="Y" k="111" />
    <hkern u1="&#xbb;" u2="X" k="56" />
    <hkern u1="&#xbb;" u2="W" k="93" />
    <hkern u1="&#xbb;" u2="V" k="111" />
    <hkern u1="&#xbb;" u2="U" k="37" />
    <hkern u1="&#xbb;" u2="T" k="93" />
    <hkern u1="&#xbb;" u2="J" k="-37" />
    <hkern u1="&#xc5;" u2="&#x201e;" k="-18" />
    <hkern u1="&#xc5;" u2="&#x201d;" k="121" />
    <hkern u1="&#xc5;" u2="&#x201c;" k="130" />
    <hkern u1="&#xc5;" u2="&#x201a;" k="-18" />
    <hkern u1="&#xc5;" u2="&#x2019;" k="121" />
    <hkern u1="&#xc5;" u2="&#x2018;" k="130" />
    <hkern u1="&#xc5;" u2="Y" k="56" />
    <hkern u1="&#xc5;" u2="W" k="19" />
    <hkern u1="&#xc5;" u2="V" k="19" />
    <hkern u1="&#xc5;" u2="U" k="19" />
    <hkern u1="&#xc5;" u2="T" k="56" />
    <hkern u1="&#xc5;" u2="Q" k="19" />
    <hkern u1="&#xc5;" u2="O" k="19" />
    <hkern u1="&#xc5;" u2="G" k="19" />
    <hkern u1="&#xc5;" u2="C" k="19" />
    <hkern u1="&#xc5;" u2="&#x3b;" k="-18" />
    <hkern u1="&#xc5;" u2="&#x3a;" k="-18" />
    <hkern u1="&#xc5;" u2="&#x2e;" k="-32" />
    <hkern u1="&#xc5;" u2="&#x2c;" k="-32" />
    <hkern u1="&#xc6;" u2="&#x201d;" k="46" />
    <hkern u1="&#xc6;" u2="&#x2019;" k="46" />
    <hkern u1="&#xc6;" u2="&#x3b;" k="-18" />
    <hkern u1="&#xc6;" u2="&#x3a;" k="-18" />
    <hkern u1="&#xc6;" u2="&#x2e;" k="-18" />
    <hkern u1="&#xc6;" u2="&#x2d;" k="-18" />
    <hkern u1="&#xc6;" u2="&#x2c;" k="-18" />
    <hkern u1="&#xd8;" u2="&#x201e;" k="56" />
    <hkern u1="&#xd8;" u2="&#x201d;" k="19" />
    <hkern u1="&#xd8;" u2="&#x201a;" k="56" />
    <hkern u1="&#xd8;" u2="&#x2019;" k="19" />
    <hkern u1="&#xd8;" u2="Y" k="37" />
    <hkern u1="&#xd8;" u2="X" k="19" />
    <hkern u1="&#xd8;" u2="V" k="19" />
    <hkern u1="&#xd8;" u2="T" k="56" />
    <hkern u1="&#xd8;" u2="A" k="19" />
    <hkern u1="&#xd8;" u2="&#x3b;" k="-18" />
    <hkern u1="&#xd8;" u2="&#x3a;" k="-18" />
    <hkern u1="&#xd8;" u2="&#x2e;" k="42" />
    <hkern u1="&#xd8;" u2="&#x2d;" k="-28" />
    <hkern u1="&#xd8;" u2="&#x2c;" k="42" />
    <hkern u1="&#xdf;" u2="&#x201c;" k="19" />
    <hkern u1="&#xdf;" u2="&#x2018;" k="19" />
    <hkern u1="&#xdf;" u2="&#x2d;" k="-37" />
    <hkern u1="&#xe5;" u2="&#x201d;" k="37" />
    <hkern u1="&#xe5;" u2="&#x201c;" k="56" />
    <hkern u1="&#xe5;" u2="&#x2019;" k="37" />
    <hkern u1="&#xe5;" u2="&#x2018;" k="56" />
    <hkern u1="&#xe6;" u2="&#x2d;" k="-18" />
    <hkern u1="&#xf8;" u2="&#x201c;" k="37" />
    <hkern u1="&#xf8;" u2="&#x2018;" k="37" />
    <hkern u1="&#xf8;" u2="&#x2d;" k="-18" />
    <hkern u1="&#x152;" u2="&#x3b;" k="-18" />
    <hkern u1="&#x152;" u2="&#x3a;" k="-18" />
    <hkern u1="&#x152;" u2="&#x2e;" k="-18" />
    <hkern u1="&#x152;" u2="&#x2d;" k="-18" />
    <hkern u1="&#x152;" u2="&#x2c;" k="-18" />
    <hkern u1="&#x153;" u2="&#x2d;" k="-18" />
    <hkern u1="&#x2018;" u2="&#xfb02;" k="-28" />
    <hkern u1="&#x2018;" u2="&#xfb01;" k="-28" />
    <hkern u1="&#x2018;" u2="&#x152;" k="42" />
    <hkern u1="&#x2018;" u2="&#xd8;" k="42" />
    <hkern u1="&#x2018;" u2="&#xc6;" k="157" />
    <hkern u1="&#x2018;" u2="&#xc5;" k="134" />
    <hkern u1="&#x2018;" u2="v" k="-28" />
    <hkern u1="&#x2018;" u2="r" k="56" />
    <hkern u1="&#x2018;" u2="q" k="37" />
    <hkern u1="&#x2018;" u2="l" k="-18" />
    <hkern u1="&#x2018;" u2="k" k="-18" />
    <hkern u1="&#x2018;" u2="h" k="-18" />
    <hkern u1="&#x2018;" u2="g" k="37" />
    <hkern u1="&#x2018;" u2="f" k="-28" />
    <hkern u1="&#x2018;" u2="d" k="37" />
    <hkern u1="&#x2018;" u2="b" k="-46" />
    <hkern u1="&#x2018;" u2="Y" k="-32" />
    <hkern u1="&#x2018;" u2="X" k="-32" />
    <hkern u1="&#x2018;" u2="W" k="-23" />
    <hkern u1="&#x2018;" u2="V" k="-28" />
    <hkern u1="&#x2018;" u2="T" k="-18" />
    <hkern u1="&#x2018;" u2="Q" k="19" />
    <hkern u1="&#x2018;" u2="O" k="42" />
    <hkern u1="&#x2018;" u2="J" k="134" />
    <hkern u1="&#x2018;" u2="A" k="134" />
    <hkern u1="&#x201a;" u2="&#xfb02;" k="-18" />
    <hkern u1="&#x201a;" u2="&#xfb01;" k="-18" />
    <hkern u1="&#x201a;" u2="&#x152;" k="56" />
    <hkern u1="&#x201a;" u2="&#xdf;" k="-18" />
    <hkern u1="&#x201a;" u2="&#xd8;" k="56" />
    <hkern u1="&#x201a;" u2="&#xc6;" k="-111" />
    <hkern u1="&#x201a;" u2="&#xc5;" k="-37" />
    <hkern u1="&#x201a;" u2="w" k="42" />
    <hkern u1="&#x201a;" u2="v" k="42" />
    <hkern u1="&#x201a;" u2="u" k="19" />
    <hkern u1="&#x201a;" u2="t" k="37" />
    <hkern u1="&#x201a;" u2="j" k="-23" />
    <hkern u1="&#x201a;" u2="f" k="-18" />
    <hkern u1="&#x201a;" u2="Y" k="111" />
    <hkern u1="&#x201a;" u2="X" k="-42" />
    <hkern u1="&#x201a;" u2="W" k="144" />
    <hkern u1="&#x201a;" u2="V" k="167" />
    <hkern u1="&#x201a;" u2="U" k="93" />
    <hkern u1="&#x201a;" u2="T" k="102" />
    <hkern u1="&#x201a;" u2="Q" k="56" />
    <hkern u1="&#x201a;" u2="O" k="56" />
    <hkern u1="&#x201a;" u2="J" k="-18" />
    <hkern u1="&#x201a;" u2="G" k="37" />
    <hkern u1="&#x201a;" u2="C" k="56" />
    <hkern u1="&#x201a;" u2="A" k="-37" />
    <hkern u1="&#x201c;" u2="&#xfb02;" k="-28" />
    <hkern u1="&#x201c;" u2="&#xfb01;" k="-28" />
    <hkern u1="&#x201c;" u2="&#x152;" k="42" />
    <hkern u1="&#x201c;" u2="&#xd8;" k="42" />
    <hkern u1="&#x201c;" u2="&#xc6;" k="157" />
    <hkern u1="&#x201c;" u2="&#xc5;" k="134" />
    <hkern u1="&#x201c;" u2="v" k="-28" />
    <hkern u1="&#x201c;" u2="r" k="56" />
    <hkern u1="&#x201c;" u2="q" k="37" />
    <hkern u1="&#x201c;" u2="l" k="-18" />
    <hkern u1="&#x201c;" u2="k" k="-18" />
    <hkern u1="&#x201c;" u2="h" k="-18" />
    <hkern u1="&#x201c;" u2="g" k="37" />
    <hkern u1="&#x201c;" u2="f" k="-28" />
    <hkern u1="&#x201c;" u2="d" k="37" />
    <hkern u1="&#x201c;" u2="b" k="-46" />
    <hkern u1="&#x201c;" u2="Y" k="-32" />
    <hkern u1="&#x201c;" u2="X" k="-32" />
    <hkern u1="&#x201c;" u2="W" k="-23" />
    <hkern u1="&#x201c;" u2="V" k="-28" />
    <hkern u1="&#x201c;" u2="T" k="-18" />
    <hkern u1="&#x201c;" u2="Q" k="19" />
    <hkern u1="&#x201c;" u2="O" k="42" />
    <hkern u1="&#x201c;" u2="J" k="134" />
    <hkern u1="&#x201c;" u2="A" k="134" />
    <hkern u1="&#x201e;" u2="&#xfb02;" k="-18" />
    <hkern u1="&#x201e;" u2="&#xfb01;" k="-18" />
    <hkern u1="&#x201e;" u2="&#x152;" k="56" />
    <hkern u1="&#x201e;" u2="&#xdf;" k="-18" />
    <hkern u1="&#x201e;" u2="&#xd8;" k="56" />
    <hkern u1="&#x201e;" u2="&#xc6;" k="-111" />
    <hkern u1="&#x201e;" u2="&#xc5;" k="-37" />
    <hkern u1="&#x201e;" u2="w" k="42" />
    <hkern u1="&#x201e;" u2="v" k="42" />
    <hkern u1="&#x201e;" u2="u" k="19" />
    <hkern u1="&#x201e;" u2="t" k="37" />
    <hkern u1="&#x201e;" u2="j" k="-23" />
    <hkern u1="&#x201e;" u2="f" k="-18" />
    <hkern u1="&#x201e;" u2="Y" k="111" />
    <hkern u1="&#x201e;" u2="X" k="-42" />
    <hkern u1="&#x201e;" u2="W" k="144" />
    <hkern u1="&#x201e;" u2="V" k="167" />
    <hkern u1="&#x201e;" u2="U" k="93" />
    <hkern u1="&#x201e;" u2="T" k="102" />
    <hkern u1="&#x201e;" u2="Q" k="56" />
    <hkern u1="&#x201e;" u2="O" k="56" />
    <hkern u1="&#x201e;" u2="J" k="-18" />
    <hkern u1="&#x201e;" u2="G" k="37" />
    <hkern u1="&#x201e;" u2="C" k="56" />
    <hkern u1="&#x201e;" u2="A" k="-37" />
    <hkern u1="&#x2039;" u2="&#xc6;" k="-74" />
    <hkern u1="&#x2039;" u2="Y" k="74" />
    <hkern u1="&#x2039;" u2="W" k="56" />
    <hkern u1="&#x2039;" u2="V" k="56" />
    <hkern u1="&#x2039;" u2="T" k="56" />
    <hkern u1="&#x2039;" u2="J" k="-18" />
    <hkern u1="&#xfb01;" u2="&#x201c;" k="19" />
    <hkern u1="&#xfb01;" u2="&#x2018;" k="19" />
  </font>
</defs></svg>
